<?xml version="1.0" encoding="UTF-8"?>
<svg width="24px" height="24px" viewBox="0 0 24 24" version="1.1" xmlns="http://www.w3.org/2000/svg" xmlns:xlink="http://www.w3.org/1999/xlink">
    <!-- Generator: Sketch 48.1 (47250) - http://www.bohemiancoding.com/sketch -->
    <title>icon/20px/app-switcher</title>
    <desc>Created with Sketch.</desc>
    <defs>
        <path d="M5,5 C5,3.8954305 5.89451376,3 6.99406028,3 L17.0059397,3 C18.1072288,3 19,3.89444002 19,5 L5,5 Z M5,19 L19,19 C19,20.10556 18.1072288,21 17.0059397,21 L6.99406028,21 C5.89451376,21 5,20.1045695 5,19 Z M6,7 L18,7 C19.6568542,7 21,8.34314575 21,10 L21,14 C21,15.6568542 19.6568542,17 18,17 L6,17 C4.34314575,17 3,15.6568542 3,14 L3,10 C3,8.34314575 4.34314575,7 6,7 Z M10,9 L10,15 L14,15 L14,9 L10,9 Z M6.06880381,9 C5.51651906,9 5.06880381,9.44771525 5.06880381,10 L5.06880381,14 C5.06880381,14.5522847 5.51651906,15 6.06880381,15 L8.06880381,15 L8.06880381,9 L6.06880381,9 Z M18.0786624,9 L16.0786624,9 L16.0786624,15 L18.0786624,15 C18.6309471,15 19.0786624,14.5522847 19.0786624,14 L19.0786624,10 C19.0786624,9.44771525 18.6309471,9 18.0786624,9 Z" id="path-1"></path>
    </defs>
    <g id="Symbols" stroke="none" stroke-width="1" fill="none" fill-rule="evenodd">
        <g id="icon/20px/app-switcher">
            <mask id="mask-2" fill="white">
                <use xlink:href="#path-1"></use>
            </mask>
            <use id="app-switcher" fill="#3F4F71" xlink:href="#path-1"></use>
        </g>
    </g>
</svg>