<?xml version="1.0" encoding="UTF-8"?>
<svg width="24px" height="24px" viewBox="0 0 24 24" version="1.1" xmlns="http://www.w3.org/2000/svg" xmlns:xlink="http://www.w3.org/1999/xlink">
    <!-- Generator: Sketch 48.1 (47250) - http://www.bohemiancoding.com/sketch -->
    <title>icon/20px/app-access</title>
    <desc>Created with Sketch.</desc>
    <defs>
        <path d="M12.6822049,11.5 C11.0655093,12.5749215 10,14.4130292 10,16.5 C10,17.9486826 10.5134179,19.27745 11.3682228,20.3142713 C7.83620903,20.8972358 3,20.1078453 3,17.9460997 C3,21.3513001 3,13.5001103 3,13.5001103 C3,12.3954799 3.90195036,11.5 5.0085302,11.5 L12.6822049,11.5 Z M9,10.5 C6.790861,10.5 5,8.709139 5,6.5 C5,4.290861 6.790861,2.5 9,2.5 C11.209139,2.5 13,4.290861 13,6.5 C13,8.709139 11.209139,10.5 9,10.5 Z M16,21.5 C13.2385763,21.5 11,19.2614237 11,16.5 C11,13.7385763 13.2385763,11.5 16,11.5 C18.7614237,11.5 21,13.7385763 21,16.5 C21,19.2614237 18.7614237,21.5 16,21.5 Z M14.6741727,18.8311118 C15.0335476,19.1904868 15.6153491,19.1904868 15.974724,18.8301927 L18.7320768,16.0682444 C19.0896135,15.7088694 19.0896135,15.127068 18.7302385,14.7686121 C18.3727018,14.4110754 17.7890621,14.4092371 17.4306063,14.7704503 L15.3230697,16.8807443 L14.5684741,16.1261488 C14.2100183,15.7676929 13.6282169,15.7676929 13.2688419,16.1261488 C12.910386,16.4855238 12.910386,17.0673252 13.2688419,17.425781 L14.6741727,18.8311118 Z" id="path-1"></path>
    </defs>
    <g id="Symbols" stroke="none" stroke-width="1" fill="none" fill-rule="evenodd">
        <g id="icon/20px/app-access">
            <mask id="mask-2" fill="white">
                <use xlink:href="#path-1"></use>
            </mask>
            <use id="Combined-Shape" fill="#3F4F71" xlink:href="#path-1"></use>
        </g>
    </g>
</svg>