<?xml version="1.0" encoding="UTF-8"?>
<svg width="24px" height="24px" viewBox="0 0 24 24" version="1.1" xmlns="http://www.w3.org/2000/svg" xmlns:xlink="http://www.w3.org/1999/xlink">
    <!-- Generator: Sketch 48.1 (47250) - http://www.bohemiancoding.com/sketch -->
    <title>icon/20px/attachment</title>
    <desc>Created with Sketch.</desc>
    <defs>
        <path d="M12.1425993,17.9647145 C10.612347,19.4600361 8.12736341,19.4606503 6.60092154,17.9690523 C5.07505176,16.4780133 5.07769296,14.0466694 6.60253018,12.5566394 L13.750494,5.57184115 C14.6476094,4.695204 16.086068,4.69251203 16.9832441,5.56920838 C17.8762599,6.44183942 17.8778447,7.85135261 16.9868708,8.72198843 L10.2836073,15.2722375 C10.0328772,15.5172442 9.62806563,15.5162552 9.36954089,15.2636318 C9.11072863,15.0107274 9.10963451,14.6157985 9.36954089,14.361825 L15.5989344,8.27462888 C15.981201,7.90108825 15.981201,7.29545925 15.5989344,6.92191863 C15.2166679,6.54837801 14.5968913,6.54837801 14.2146247,6.92191863 L7.98523122,13.0091147 C6.95910884,14.0118139 6.96355865,15.6179911 7.98523122,16.616342 C9.00674385,17.6145368 10.6511,17.618554 11.667917,16.6249478 L18.3711804,10.0746987 C20.0273693,8.4563154 20.0244225,5.83554581 18.3675538,4.21649814 C16.7046552,2.59155823 14.0266484,2.59656992 12.3661843,4.2191309 L5.2182205,11.2039291 C2.92950728,13.4403982 2.92555029,17.0829987 5.21661185,19.3217625 C7.50774368,21.560595 11.2322803,21.5596744 13.526909,19.3174248 L20.2133,12.783663 C20.5955667,12.4101224 20.5955667,11.8044934 20.2133,11.4309528 C19.8310335,11.0574122 19.211257,11.0574122 18.8289903,11.4309528 L12.1425993,17.9647145 Z" id="path-1"></path>
    </defs>
    <g id="Symbols" stroke="none" stroke-width="1" fill="none" fill-rule="evenodd">
        <g id="icon/20px/attachment">
            <mask id="mask-2" fill="white">
                <use xlink:href="#path-1"></use>
            </mask>
            <use id="attachment" fill="#42526E" xlink:href="#path-1"></use>
        </g>
    </g>
</svg>