<?xml version="1.0" encoding="UTF-8"?>
<svg width="24px" height="24px" viewBox="0 0 24 24" version="1.1" xmlns="http://www.w3.org/2000/svg" xmlns:xlink="http://www.w3.org/1999/xlink">
    <!-- Generator: Sketch 48.1 (47250) - http://www.bohemiancoding.com/sketch -->
    <title>icon/20px/chevron-left</title>
    <desc>Created with Sketch.</desc>
    <defs>
        <path d="M8.967875,12.705875 C8.772875,12.510875 8.675875,12.254875 8.675875,11.998875 C8.675875,11.742875 8.773875,11.485875 8.968875,11.290875 L13.526875,6.742875 C13.938875,6.332875 14.604875,6.332875 15.015875,6.743875 L15.015875,6.744875 C15.426875,7.155875 15.425875,7.821875 15.014875,8.230875 L11.238875,11.998875 L15.014875,15.768875 L15.015875,15.769875 C15.426875,16.179875 15.426875,16.845875 15.015875,17.255875 C14.604875,17.666875 13.938875,17.667875 13.527875,17.255875 L8.968875,12.706875 L8.967875,12.705875 Z" id="path-1"></path>
    </defs>
    <g id="Symbols" stroke="none" stroke-width="1" fill="none" fill-rule="evenodd">
        <g id="icon/20px/chevron-left">
            <mask id="mask-2" fill="white">
                <use xlink:href="#path-1"></use>
            </mask>
            <use id="chevron-left" fill="#42526E" xlink:href="#path-1"></use>
        </g>
    </g>
</svg>