<?xml version="1.0" encoding="UTF-8"?>
<svg width="24px" height="24px" viewBox="0 0 24 24" version="1.1" xmlns="http://www.w3.org/2000/svg" xmlns:xlink="http://www.w3.org/1999/xlink">
    <!-- Generator: Sketch 48.1 (47250) - http://www.bohemiancoding.com/sketch -->
    <title>icon/20px/chevron-top</title>
    <desc>Created with Sketch.</desc>
    <defs>
        <path d="M11.294125,8.967875 L11.293125,8.968875 L6.744125,13.527875 C6.332125,13.938875 6.333125,14.604875 6.744125,15.015875 C7.154125,15.426875 7.820125,15.426875 8.230125,15.015875 L8.231125,15.014875 L12.001125,11.238875 L15.769125,15.014875 C16.178125,15.425875 16.844125,15.426875 17.255125,15.015875 C17.256125,15.015875 17.256125,15.015875 17.256125,15.015875 C17.667125,14.604875 17.667125,13.938875 17.257125,13.526875 L12.709125,8.968875 C12.514125,8.773875 12.257125,8.675875 12.001125,8.675875 C11.745125,8.675875 11.489125,8.772875 11.294125,8.967875 Z" id="path-1"></path>
    </defs>
    <g id="Symbols" stroke="none" stroke-width="1" fill="none" fill-rule="evenodd">
        <g id="icon/20px/chevron-top">
            <mask id="mask-2" fill="white">
                <use xlink:href="#path-1"></use>
            </mask>
            <use id="chevron-top" fill="#42526E" xlink:href="#path-1"></use>
        </g>
    </g>
</svg>