<?xml version="1.0" encoding="UTF-8"?>
<svg width="24px" height="24px" viewBox="0 0 24 24" version="1.1" xmlns="http://www.w3.org/2000/svg" xmlns:xlink="http://www.w3.org/1999/xlink">
    <!-- Generator: Sketch 48.1 (47250) - http://www.bohemiancoding.com/sketch -->
    <title>icon/20px/copy</title>
    <desc>Created with Sketch.</desc>
    <defs>
        <path d="M14.5,5 L6.5,5 L6.5,16 L4.5,16 L4.5,4.99188419 C4.5,3.89179693 5.40195036,3 6.5085302,3 L14.4914698,3 L14.5,3 L14.5,5 Z M7.5,7.99188419 C7.5,6.89179693 8.40195036,6 9.5085302,6 L17.4914698,6 C18.6007504,6 19.5,6.89339733 19.5,7.99188419 L19.5,19.0081158 C19.5,20.1082031 18.5980496,21 17.4914698,21 L9.5085302,21 C8.3992496,21 7.5,20.1066027 7.5,19.0081158 L7.5,7.99188419 Z M9.5,7.79000909 L9.5,18.7900091 L17.5,18.7900091 L17.5,7.79000909 L9.5,7.79000909 Z" id="path-1"></path>
    </defs>
    <g id="Symbols" stroke="none" stroke-width="1" fill="none" fill-rule="evenodd">
        <g id="icon/20px/copy">
            <mask id="mask-2" fill="white">
                <use xlink:href="#path-1"></use>
            </mask>
            <use id="copy" fill="#42526E" xlink:href="#path-1"></use>
        </g>
    </g>
</svg>