<?xml version="1.0" encoding="UTF-8"?>
<svg width="24px" height="24px" viewBox="0 0 24 24" version="1.1" xmlns="http://www.w3.org/2000/svg" xmlns:xlink="http://www.w3.org/1999/xlink">
    <!-- Generator: Sketch 48.1 (47250) - http://www.bohemiancoding.com/sketch -->
    <title>icon/20px/credit card</title>
    <desc>Created with Sketch.</desc>
    <defs></defs>
    <g id="Symbols" stroke="none" stroke-width="1" fill="none" fill-rule="evenodd">
        <g id="icon/20px/credit-card" fill="#42526E">
            <path d="M19,5 C20.1,5 21,5.9 21,7 L21,17 C21,18.1 20.1,19 19,19 L5,19 C3.9,19 3,18.1 3,17 L3,7 C3,5.9 3.9,5 5,5 L19,5 Z M5.013,17 L19.013,17 L19.013,11 L5.013,11 L5.013,17 Z M5.013,9 L19.013,9 L19.013,7 L5.013,7 L5.013,9 Z M7.013,15 L7.013,13 L9.013,13 L9.013,15 L7.013,15 Z" id="Combined-Shape"></path>
        </g>
    </g>
</svg>