<?xml version="1.0" encoding="UTF-8"?>
<svg width="24px" height="24px" viewBox="0 0 24 24" version="1.1" xmlns="http://www.w3.org/2000/svg" xmlns:xlink="http://www.w3.org/1999/xlink">
    <!-- Generator: Sketch 48.1 (47250) - http://www.bohemiancoding.com/sketch -->
    <title>icon/20px/decision</title>
    <desc>Created with Sketch.</desc>
    <defs>
        <path d="M6.33608738,4.92187382 L12.2946883,10.8804747 C12.6848575,11.270644 13,12.0368532 13,12.5932722 L13,19.9925142 C13,20.5459329 12.5522847,21 12,21 C11.4438648,21 11,20.5515227 11,19.9982979 L11,12.4142136 L4.926235,6.34044856 L4.93335067,8.03982921 C4.93556184,8.56790601 4.50829522,8.9977853 3.97902398,8.99999148 C3.44975273,9.00219766 3.0189011,8.57589529 3.01668993,8.0478185 L3,4.04355495 C3.00490552,3.46644164 3.47482916,2.99757851 4.0580108,3.00000941 L8.04566477,3.01663129 C8.57493601,3.01883747 9.00220263,3.44871676 8.99999146,3.97679356 C8.99778029,4.50487035 8.56692866,4.93117271 8.03765741,4.92896653 L6.33608738,4.92187382 Z M19.2928932,3.29289322 C19.6834175,2.90236893 20.3165825,2.90236893 20.7071068,3.29289322 C21.0976311,3.68341751 21.0976311,4.31658249 20.7071068,4.70710678 L15.7071068,9.70710678 C15.3165825,10.0976311 14.6834175,10.0976311 14.2928932,9.70710678 C13.9023689,9.31658249 13.9023689,8.68341751 14.2928932,8.29289322 L19.2928932,3.29289322 Z" id="path-1"></path>
    </defs>
    <g id="Symbols" stroke="none" stroke-width="1" fill="none" fill-rule="evenodd">
        <g id="icon/20px/decision">
            <mask id="mask-2" fill="white">
                <use xlink:href="#path-1"></use>
            </mask>
            <use id="Combined-Shape" fill="#42526E" fill-rule="nonzero" xlink:href="#path-1"></use>
        </g>
    </g>
</svg>