<?xml version="1.0" encoding="UTF-8"?>
<svg width="24px" height="24px" viewBox="0 0 24 24" version="1.1" xmlns="http://www.w3.org/2000/svg" xmlns:xlink="http://www.w3.org/1999/xlink">
    <!-- Generator: Sketch 48.1 (47250) - http://www.bohemiancoding.com/sketch -->
    <title>icon/20px/document-filled</title>
    <desc>Created with Sketch.</desc>
    <defs>
        <path d="M18.99,8.989 L19,10.005 L19,19 C19,20.104 18.105,21 17,21 L7,21 C5.895,21 5,20.104 5,19 L5,5 C5,3.895 5.895,3 7,3 L12.275,3 C12.744,3 13.197,3.164 13.557,3.464 L18.631,7.7 C18.858,7.89 18.99,8.171 18.99,8.468 L18.99,8.989 Z M12.0190612,4.9998 L12.0000176,8.19148993 C11.9967738,8.73514869 12.4417319,9.18280332 12.9939103,9.18280332 L16.9941028,9.18280332 L12.0190612,4.9998 Z" id="path-1"></path>
    </defs>
    <g id="Symbols" stroke="none" stroke-width="1" fill="none" fill-rule="evenodd">
        <g id="icon/20px/document-filled">
            <mask id="mask-2" fill="white">
                <use xlink:href="#path-1"></use>
            </mask>
            <use id="Combined-Shape" fill="#42526E" xlink:href="#path-1"></use>
        </g>
    </g>
</svg>