<?xml version="1.0" encoding="UTF-8"?>
<svg width="24px" height="24px" viewBox="0 0 24 24" version="1.1" xmlns="http://www.w3.org/2000/svg" xmlns:xlink="http://www.w3.org/1999/xlink">
    <!-- Generator: Sketch 48.1 (47250) - http://www.bohemiancoding.com/sketch -->
    <title>icon/20px/graph-bar</title>
    <desc>Created with Sketch.</desc>
    <defs>
        <path d="M17,6.99201702 C17,5.8918564 17.8877296,5 19,5 C20.1045695,5 21,5.90017617 21,6.99201702 L21,14.007983 C21,15.1081436 20.1122704,16 19,16 C17.8954305,16 17,15.0998238 17,14.007983 L17,6.99201702 Z M11,9.99810135 C11,8.89458045 11.8877296,8 13,8 C14.1045695,8 15,8.88670635 15,9.99810135 L15,14.0018986 C15,15.1054196 14.1122704,16 13,16 C11.8954305,16 11,15.1132936 11,14.0018986 L11,9.99810135 Z M5,13.0048815 C5,11.897616 5.88772964,11 7,11 C8.1045695,11 9,11.8938998 9,13.0048815 L9,13.9951185 C9,15.102384 8.11227036,16 7,16 C5.8954305,16 5,15.1061002 5,13.9951185 L5,13.0048815 Z M21,17 C21.5522847,17 22,17.4477153 22,18 C22,18.5522847 21.5522847,19 21,19 L4.99508929,19 C3.34015473,19 2,17.6495635 2,15.9914698 L2,6 C2,5.44771525 2.44771525,5 3,5 C3.55228475,5 4,5.44771525 4,6 L4,15.9914698 C4,16.5484013 4.4481604,17 4.99508929,17 L21,17 Z" id="path-1"></path>
    </defs>
    <g id="Symbols" stroke="none" stroke-width="1" fill="none" fill-rule="evenodd">
        <g id="icon/20px/graph-bar">
            <g id="icons/graph-bar">
                <mask id="mask-2" fill="white">
                    <use xlink:href="#path-1"></use>
                </mask>
                <use id="Mask" fill="#172B4D" xlink:href="#path-1"></use>
            </g>
        </g>
    </g>
</svg>