<?xml version="1.0" encoding="UTF-8"?>
<svg width="24px" height="24px" viewBox="0 0 24 24" version="1.1" xmlns="http://www.w3.org/2000/svg" xmlns:xlink="http://www.w3.org/1999/xlink">
    <!-- Generator: Sketch 48.1 (47250) - http://www.bohemiancoding.com/sketch -->
    <title>icon/20px/image-border</title>
    <desc>Created with Sketch.</desc>
    <defs>
        <path d="M2.9995,17.001 L4.9995,17.001 L4.9995,19.001 L6.9995,19.001 L6.9995,21.001 L3.5895,21.001 C3.2615,21.001 2.9995,20.737 2.9995,20.411 L2.9995,17.001 Z M18.9995,17.001 L20.9995,17.001 L20.9995,20.411 C20.9995,20.737 20.7375,21.001 20.4095,21.001 L16.9995,21.001 L16.9995,19.001 L18.9995,19.001 L18.9995,17.001 Z M3.5895,3.001 L6.9995,3.001 L6.9995,5.001 L4.9995,5.001 L4.9995,7.001 L2.9995,7.001 L2.9995,3.591 C2.9995,3.263 3.2635,3.001 3.5895,3.001 Z M16.9995,3.001 L20.4095,3.001 C20.7375,3.001 20.9995,3.265 20.9995,3.591 L20.9995,7.001 L18.9995,7.001 L18.9995,5.001 L16.9995,5.001 L16.9995,3.001 Z M13.9995,5.001 L13.9995,3 L15.9995,3 L15.9995,5.001 L13.9995,5.001 Z M7.9995,5.001 L7.9995,3 L12.9995,3 L12.9995,5.001 L7.9995,5.001 Z M18.9995,10.001 L18.9995,8.001 L21.0005,8.001 L21.0005,10.001 L18.9995,10.001 Z M2.9995,12.001 L2.9995,8.001 L4.9995,8.001 L4.9995,12.001 L2.9995,12.001 Z M18.9995,16.001 L18.9995,11.001 L21.0005,11.001 L21.0005,16.001 L18.9995,16.001 Z M2.9995,16.001 L2.9995,13.001 L4.9995,13.001 L4.9995,16.001 L2.9995,16.001 Z M11.9995,21.001 L11.9995,19.001 L15.9995,19.001 L15.9995,21.001 L11.9995,21.001 Z M7.9995,21.001 L7.9995,19.001 L10.9995,19.001 L10.9995,21.001 L7.9995,21.001 Z" id="path-1"></path>
    </defs>
    <g id="Symbols" stroke="none" stroke-width="1" fill="none" fill-rule="evenodd">
        <g id="icon/20px/image-border">
            <mask id="mask-2" fill="white">
                <use xlink:href="#path-1"></use>
            </mask>
            <use id="Combined-Shape" fill="#42526E" xlink:href="#path-1"></use>
        </g>
    </g>
</svg>