<?xml version="1.0" encoding="UTF-8"?>
<svg width="24px" height="24px" viewBox="0 0 24 24" version="1.1" xmlns="http://www.w3.org/2000/svg" xmlns:xlink="http://www.w3.org/1999/xlink">
    <!-- Generator: Sketch 48.1 (47250) - http://www.bohemiancoding.com/sketch -->
    <title>icon/20px/import</title>
    <desc>Created with Sketch.</desc>
    <defs>
        <path d="M19,12 L19,19 L5,19 L5,12 L3,12 L3,19 C3,20.1 3.9,21 5,21 L19,21 C20.1,21 21,20.1 21,19 L21,12 L19,12 Z M8.307,12.304 C8.714,11.899 9.376,11.899 9.783,12.304 L11,13.509 L11,3.977 C11,3.437 11.448,3 12,3 C12.551,3 13,3.437 13,3.977 L13,13.51 L14.217,12.304 C14.625,11.899 15.286,11.899 15.695,12.304 C15.898,12.504 16,12.771 16,13.035 C16,13.3 15.898,13.565 15.695,13.768 L12.739,16.698 C12.33,17.101 11.67,17.101 11.262,16.698 L8.307,13.768 C7.898,13.363 7.898,12.708 8.307,12.304 Z" id="path-1"></path>
    </defs>
    <g id="Symbols" stroke="none" stroke-width="1" fill="none" fill-rule="evenodd">
        <g id="icon/20px/import">
            <mask id="mask-2" fill="white">
                <use xlink:href="#path-1"></use>
            </mask>
            <use id="import" fill="#42526E" transform="translate(12.000000, 12.000000) rotate(90.000000) translate(-12.000000, -12.000000) " xlink:href="#path-1"></use>
        </g>
    </g>
</svg>