<?xml version="1.0" encoding="UTF-8"?>
<svg width="24px" height="24px" viewBox="0 0 24 24" version="1.1" xmlns="http://www.w3.org/2000/svg" xmlns:xlink="http://www.w3.org/1999/xlink">
    <!-- Generator: Sketch 48.1 (47250) - http://www.bohemiancoding.com/sketch -->
    <title>icon/20px/issue-raise</title>
    <desc>Created with Sketch.</desc>
    <defs>
        <path d="M13,11 L14.009222,11 C14.5564136,11 15,11.4438648 15,12 C15,12.5522847 14.5490248,13 14.009222,13 L13,13 L13,14.009222 C13,14.5564136 12.5561352,15 12,15 C11.4477153,15 11,14.5490248 11,14.009222 L11,13 L9.99077797,13 C9.44358641,13 9,12.5561352 9,12 C9,11.4477153 9.45097518,11 9.99077797,11 L11,11 L11,9.99077797 C11,9.44358641 11.4438648,9 12,9 C12.5522847,9 13,9.45097518 13,9.99077797 L13,11 Z M3,8.0085302 C3,6.8992496 3.8926228,6 4.99508929,6 L19.0049107,6 C20.1067681,6 21,6.90195036 21,8.0085302 L21,15.9914698 C21,17.1007504 20.1073772,18 19.0049107,18 L4.99508929,18 C3.8932319,18 3,17.0980496 3,15.9914698 L3,8.0085302 Z M5.00490726,15.9914698 C5.00490726,15.9978202 19,16 19,16 C18.994578,16 18.9950927,8.0085302 18.9950927,8.0085302 C18.9950927,8.00217984 5,8 5,8 C5.00542195,8 5.00490726,15.9914698 5.00490726,15.9914698 Z" id="path-1"></path>
    </defs>
    <g id="Symbols" stroke="none" stroke-width="1" fill="none" fill-rule="evenodd">
        <g id="icon/20px/issue-raise">
            <mask id="mask-2" fill="white">
                <use xlink:href="#path-1"></use>
            </mask>
            <use id="Mask" fill="#3F4F71" xlink:href="#path-1"></use>
        </g>
    </g>
</svg>