<?xml version="1.0" encoding="UTF-8"?>
<svg width="24px" height="24px" viewBox="0 0 24 24" version="1.1" xmlns="http://www.w3.org/2000/svg" xmlns:xlink="http://www.w3.org/1999/xlink">
    <!-- Generator: Sketch 48.1 (47250) - http://www.bohemiancoding.com/sketch -->
    <title>icon/20px/link</title>
    <desc>Created with Sketch.</desc>
    <defs>
        <path d="M12.8559321,5.45656332 C14.5826696,3.76063081 17.385385,3.47001565 19.2776576,4.98609193 C21.4482359,6.72775061 21.5672142,9.90825917 19.6345925,11.8074191 L16.7304869,14.6586993 C14.9096014,16.4471002 11.9299704,16.4471002 10.1080503,14.6586993 L9,13.5704166 L10.462916,12.1325829 L11.5720009,13.2218817 C12.5921106,14.2248088 14.2474612,14.2248088 15.2675709,13.2218817 L18.1706419,10.3706015 C19.2538619,9.30670611 19.1855787,7.53557946 17.9678615,6.56008802 C16.9084371,5.71262983 15.3327503,5.89858288 14.3664395,6.84765477 L13.3815059,7.81400098 C12.9780142,8.21131051 12.3220816,8.21131051 11.9185899,7.81400098 C11.5140636,7.41770758 11.5140636,6.77449291 11.9185899,6.37718337 L12.8559321,5.45656332 Z M11.144116,19.5434367 C9.41737847,21.2393692 6.61466312,21.5299844 4.72239055,20.0139081 C2.55181218,18.2722494 2.43283386,15.0917408 4.3654556,13.1925809 L7.26956117,10.3413007 C9.09044674,8.55289976 12.0700777,8.55289976 13.8919979,10.3413007 L15.0000481,11.4295834 L13.5371321,12.8674171 L12.4280472,11.7781183 C11.4079375,10.7751912 9.75258695,10.7751912 8.73247719,11.7781183 L5.82940622,14.6293985 C4.74618622,15.6932939 4.81446943,17.4644205 6.03218665,18.439912 C7.09161099,19.2873702 8.66729777,19.1014171 9.63360863,18.1523452 L10.6185422,17.185999 C11.0220339,16.7886895 11.6779665,16.7886895 12.0814582,17.185999 C12.4859845,17.5822924 12.4859845,18.2255071 12.0814582,18.6228166 L11.144116,19.5434367 Z" id="path-1"></path>
    </defs>
    <g id="Symbols" stroke="none" stroke-width="1" fill="none" fill-rule="evenodd">
        <g id="icon/20px/link">
            <mask id="mask-2" fill="white">
                <use xlink:href="#path-1"></use>
            </mask>
            <use id="link" fill="#172B4D" xlink:href="#path-1"></use>
        </g>
    </g>
</svg>