<?xml version="1.0" encoding="UTF-8"?>
<svg width="24px" height="24px" viewBox="0 0 24 24" version="1.1" xmlns="http://www.w3.org/2000/svg" xmlns:xlink="http://www.w3.org/1999/xlink">
    <!-- Generator: Sketch 48.1 (47250) - http://www.bohemiancoding.com/sketch -->
    <title>icon/20px/list</title>
    <desc>Created with Sketch.</desc>
    <defs>
        <path d="M3,18 L3,17 L21,17 L21,18 C21,18.5561352 20.5552407,19 20.0066023,19 L3.99339768,19 C3.44494629,19 3,18.5522847 3,18 Z M3,11 L3,9 L21,9 L21,11 L3,11 Z M3,7 L3,6 C3,5.44386482 3.44475929,5 3.99339768,5 L20.0066023,5 C20.5550537,5 21,5.44771525 21,6 L21,7 L3,7 Z M3,15 L3,13 L21,13 L21,15 L3,15 Z" id="path-1"></path>
    </defs>
    <g id="Symbols" stroke="none" stroke-width="1" fill="none" fill-rule="evenodd">
        <g id="icon/20px/list">
            <mask id="mask-2" fill="white">
                <use xlink:href="#path-1"></use>
            </mask>
            <use id="Combined-Shape" fill="#42526E" fill-rule="nonzero" xlink:href="#path-1"></use>
        </g>
    </g>
</svg>