<?xml version="1.0" encoding="UTF-8"?>
<svg width="24px" height="24px" viewBox="0 0 24 24" version="1.1" xmlns="http://www.w3.org/2000/svg" xmlns:xlink="http://www.w3.org/1999/xlink">
    <!-- Generator: Sketch 48.1 (47250) - http://www.bohemiancoding.com/sketch -->
    <title>icon/20px/people</title>
    <desc>Created with Sketch.</desc>
    <defs>
        <path d="M16.2338134,12 C14.4887805,12 13.0741519,10.5853714 13.0741519,8.84033858 C13.0741519,7.09530576 14.4887805,5.68067715 16.2338134,5.68067715 C17.9788462,5.68067715 19.3934748,7.09530576 19.3934748,8.84033858 C19.3934748,10.5853714 17.9788462,12 16.2338134,12 Z M7.80804957,8.84033858 C6.06301675,8.84033858 4.64838814,7.42570997 4.64838814,5.68067715 C4.64838814,3.93564434 6.06301675,2.52101573 7.80804957,2.52101573 C9.55308238,2.52101573 10.967711,3.93564434 10.967711,5.68067715 C10.967711,7.42570997 9.55308238,8.84033858 7.80804957,8.84033858 Z M10.967711,15.0523195 C10.967711,13.9482476 11.8656808,13.0532205 12.9735289,13.0532205 L19.4940979,13.0532205 C20.6018805,13.0532205 21.4999157,13.9469633 21.4999157,15.0511012 L21.4999157,19.0880331 C21.4999157,22.275968 10.967711,22.275968 10.967711,19.0880331 L10.967711,15.0523195 Z M13.0741531,12 L12.9096892,12 C11.2670627,12 9.91450586,13.3432558 9.91450586,15.0002458 L9.91450586,18.1223009 C6.8121497,18.6851478 2.54196086,18.0560727 2.54196086,16.0327812 L2.54196086,12.0031597 C2.54196086,10.8382978 3.47616764,9.89355905 4.64840229,9.89355905 L10.9677266,9.89355905 C12.1287607,9.89355905 13.0696718,10.8254126 13.0741519,12 Z" id="path-1"></path>
    </defs>
    <g id="Symbols" stroke="none" stroke-width="1" fill="none" fill-rule="evenodd">
        <g id="icon/20px/people">
            <mask id="mask-2" fill="white">
                <use xlink:href="#path-1"></use>
            </mask>
            <use id="Combined-Shape" fill="#172B4D" xlink:href="#path-1"></use>
        </g>
    </g>
</svg>