<?xml version="1.0" encoding="UTF-8"?>
<svg width="24px" height="24px" viewBox="0 0 24 24" version="1.1" xmlns="http://www.w3.org/2000/svg" xmlns:xlink="http://www.w3.org/1999/xlink">
    <!-- Generator: Sketch 48.1 (47250) - http://www.bohemiancoding.com/sketch -->
    <title>icon/20px/quote</title>
    <desc>Created with Sketch.</desc>
    <defs>
        <path d="M15.6286891,5.58062003 C14.0576891,5.58062003 12.7816891,6.89262003 12.7816891,8.51062003 C12.7816891,10.12762 14.0576891,11.43962 15.6286891,11.43962 C18.3276891,11.43962 16.7636891,16.52862 13.3596891,17.05862 C13.0276891,17.11062 12.7816891,17.39362 12.7816891,17.72962 L12.7816891,17.72962 C12.7816891,18.14562 13.1536891,18.47462 13.5656891,18.41162 C19.7526891,17.47362 21.9526891,5.58062003 15.6286891,5.58062003 M7.42568906,5.58062003 C5.85268906,5.58062003 4.57768906,6.89262003 4.57768906,8.51062003 C4.57768906,10.12762 5.85268906,11.43962 7.42568906,11.43962 C10.1236891,11.43962 8.55968906,16.52862 5.15568906,17.05862 C4.82368906,17.11062 4.57768906,17.39362 4.57768906,17.72962 L4.57768906,17.72962 C4.57768906,18.14562 4.94968906,18.47462 5.36068906,18.41162 C11.5496891,17.47362 13.7496891,5.58062003 7.42568906,5.58062003" id="path-1"></path>
    </defs>
    <g id="Symbols" stroke="none" stroke-width="1" fill="none" fill-rule="evenodd">
        <g id="icon/20px/quote">
            <mask id="mask-2" fill="white">
                <use xlink:href="#path-1"></use>
            </mask>
            <use id="quote" fill="#3F4F71" xlink:href="#path-1"></use>
        </g>
    </g>
</svg>