<?xml version="1.0" encoding="UTF-8"?>
<svg width="24px" height="24px" viewBox="0 0 24 24" version="1.1" xmlns="http://www.w3.org/2000/svg" xmlns:xlink="http://www.w3.org/1999/xlink">
    <!-- Generator: Sketch 48.1 (47250) - http://www.bohemiancoding.com/sketch -->
    <title>icon/20px/redo</title>
    <desc>Created with Sketch.</desc>
    <defs>
        <path d="M17.7470719,11.3186441 L17.7470719,10 C17.7470719,9.448 18.1950719,9 18.7480719,9 C19.3010719,9 19.7500719,9.448 19.7500719,10 L19.7500719,13.9 C19.7500719,14.507 19.2560719,15 18.6480719,15 L14.7520719,15 C14.1980719,15 13.7500719,14.552 13.7500719,14 C13.7500719,13.448 14.1980719,13 14.7520719,13 L16.5384752,13 C15.3739343,11.748923 13.6953495,11 11.8800719,11 C9.44307186,11 7.26107186,12.351 6.23207186,14.429 C5.98607186,14.927 5.36407186,15.139 4.84407186,14.902 C4.32507186,14.664 4.10407186,14.069 4.35107186,13.569 C5.72207186,10.802 8.63307186,9 11.8800719,9 C14.1262883,9 16.217053,9.86134657 17.7470719,11.3186441 Z" id="path-1"></path>
    </defs>
    <g id="Symbols" stroke="none" stroke-width="1" fill="none" fill-rule="evenodd">
        <g id="icon/20px/redo">
            <mask id="mask-2" fill="white">
                <use xlink:href="#path-1"></use>
            </mask>
            <use id="redo" fill="#3F4F71" xlink:href="#path-1"></use>
        </g>
    </g>
</svg>