<?xml version="1.0" encoding="UTF-8"?>
<svg width="24px" height="24px" viewBox="0 0 24 24" version="1.1" xmlns="http://www.w3.org/2000/svg" xmlns:xlink="http://www.w3.org/1999/xlink">
    <!-- Generator: Sketch 48.1 (47250) - http://www.bohemiancoding.com/sketch -->
    <title>icon/20px/schedule-filled</title>
    <desc>Created with Sketch.</desc>
    <defs>
        <path d="M17.5,15 L17.5,13.990778 C17.5,13.4509752 17.0522847,13 16.5,13 C15.9438648,13 15.5,13.4435864 15.5,13.990778 L15.5,15 L14.490778,15 C13.9509752,15 13.5,15.4477153 13.5,16 C13.5,16.5561352 13.9435864,17 14.490778,17 L15.5,17 L15.5,18.009222 C15.5,18.5490248 15.9477153,19 16.5,19 C17.0561352,19 17.5,18.5564136 17.5,18.009222 L17.5,17 L18.509222,17 C19.0490248,17 19.5,16.5522847 19.5,16 C19.5,15.4438648 19.0564136,15 18.509222,15 L17.5,15 Z M7.5,5 L7.5,6 C7.5,6.552 7.052,7 6.5,7 C5.948,7 5.5,6.552 5.5,6 L5.5,5 L5.5,4 C5.5,3.448 5.948,3 6.5,3 C7.052,3 7.5,3.448 7.5,4 L7.5,5 Z M13.5,5 L13.5,4 C13.5,3.448 13.948,3 14.5,3 C15.052,3 15.5,3.448 15.5,4 L15.5,5 L15.5,6 C15.5,6.552 15.052,7 14.5,7 C13.948,7 13.5,6.552 13.5,6 L13.5,5 Z M18.5,10.3414114 C17.8744421,10.1203084 17.2012708,10 16.5,10 C13.1862915,10 10.5,12.6862915 10.5,16 C10.5,17.0928614 10.7921829,18.1174799 11.3026932,19 L4.27333333,19 C3.29377778,19 2.5,18.21775 2.5,17.25525 L2.5,6.74475 C2.5,5.781375 3.29288889,5 4.27333333,5 L4.5,5 L4.5,6 C4.5,7.11227036 5.3954305,8 6.5,8 C7.61227036,8 8.5,7.1045695 8.5,6 L8.5,5 L12.5,5 L12.5,6 C12.5,7.11227036 13.3954305,8 14.5,8 C15.6122704,8 16.5,7.1045695 16.5,6 L16.5,5 L16.7266667,5 C17.7062222,5 18.5,5.783125 18.5,6.74475 L18.5,10.3414114 Z M16.5,21 C13.7385763,21 11.5,18.7614237 11.5,16 C11.5,13.2385763 13.7385763,11 16.5,11 C19.2614237,11 21.5,13.2385763 21.5,16 C21.5,18.7614237 19.2614237,21 16.5,21 Z" id="path-1"></path>
    </defs>
    <g id="Symbols" stroke="none" stroke-width="1" fill="none" fill-rule="evenodd">
        <g id="icon/20px/schedule-filled">
            <mask id="mask-2" fill="white">
                <use xlink:href="#path-1"></use>
            </mask>
            <use id="Combined-Shape" fill="#42526E" xlink:href="#path-1"></use>
        </g>
    </g>
</svg>