<?xml version="1.0" encoding="UTF-8"?>
<svg width="24px" height="24px" viewBox="0 0 24 24" version="1.1" xmlns="http://www.w3.org/2000/svg" xmlns:xlink="http://www.w3.org/1999/xlink">
    <!-- Generator: Sketch 48.1 (47250) - http://www.bohemiancoding.com/sketch -->
    <title>icon/20px/send</title>
    <desc>Created with Sketch.</desc>
    <defs>
        <path d="M8.97329303,11.6313607 L8.97329303,17.2121134 L19.4612507,6.02581275 L4.6103869,6.02581275 L8.17683963,9.7523168 L11.5782958,8.09817817 C12.0751179,7.85657207 12.6680084,8.07558995 12.9025537,8.5873683 C13.1370991,9.09914665 12.9244818,9.70988541 12.4276598,9.95149152 L8.97329303,11.6313607 Z M6.98044809,18.4774708 L6.98044809,11.3996728 L2.42020645,6.57210945 C1.5068331,5.6070956 2.18060181,4 3.49795156,4 L20.4112266,4 C21.8047253,4 22.5207241,5.69516442 21.5599866,6.72362536 L9.55670459,19.5261509 C8.62526142,20.5185247 6.98044809,19.8482943 6.98044809,18.4774708 Z" id="path-1"></path>
    </defs>
    <g id="Symbols" stroke="none" stroke-width="1" fill="none" fill-rule="evenodd">
        <g id="icon/20px/send">
            <mask id="mask-2" fill="white">
                <use xlink:href="#path-1"></use>
            </mask>
            <use id="Combined-Shape" fill="#42526E" xlink:href="#path-1"></use>
        </g>
    </g>
</svg>