<?xml version="1.0" encoding="UTF-8"?>
<svg width="24px" height="24px" viewBox="0 0 24 24" version="1.1" xmlns="http://www.w3.org/2000/svg" xmlns:xlink="http://www.w3.org/1999/xlink">
    <!-- Generator: Sketch 48.1 (47250) - http://www.bohemiancoding.com/sketch -->
    <title>icon/20px/ship</title>
    <desc>Created with Sketch.</desc>
    <defs>
        <path d="M3.99768541,12 L3.99768541,8.99077797 C3.99768541,8.44358641 4.45344636,8 5.0001587,8 L5.99768541,8 L5.99768541,7.0048815 C5.99768541,5.89761602 6.89594603,5 7.99559853,5 L9.99977229,5 C11.1031892,5 11.9976854,5.8938998 11.9976854,7.0048815 L11.9976854,8 L14.9952121,8 C15.5488628,8 15.9976854,8.45097518 15.9976854,8.99077797 L15.9976854,12 L21.2732392,12 C21.8239107,12 22.1310943,12.4169188 21.9550663,12.9440511 L20.2480233,18.0559489 C20.0739144,18.5773339 19.4900769,19 18.9331424,19 L3.72311056,19 C3.17103074,19 2.670963,18.5621186 2.60497296,18.0119176 L2.00242406,12.9880824 C1.93697353,12.4423796 2.32867367,12 2.88099441,12 L3.99768541,12 Z M5.99768541,12 L13.9976854,12 L13.9976854,10 L11.9976854,10 L5.99768541,10 L5.99768541,12 Z M9.99768541,7.0048815 C9.99768541,7.00140179 9.99808352,7.00030191 9.99858482,7 L7.99559853,7 C8.00019309,7 7.99768541,7.00251316 7.99768541,7.0048815 L7.99768541,8 L9.99768541,8 L9.99768541,7.0048815 Z M4.49793933,17 L18.4920758,17 L19.4938816,14 L4.13812523,14 L4.49793933,17 Z" id="path-1"></path>
    </defs>
    <g id="Symbols" stroke="none" stroke-width="1" fill="none" fill-rule="evenodd">
        <g id="icon/20px/ship">
            <mask id="mask-2" fill="white">
                <use xlink:href="#path-1"></use>
            </mask>
            <use id="Combined-Shape" fill="#42526E" xlink:href="#path-1"></use>
        </g>
    </g>
</svg>