<?xml version="1.0" encoding="UTF-8"?>
<svg width="24px" height="24px" viewBox="0 0 24 24" version="1.1" xmlns="http://www.w3.org/2000/svg" xmlns:xlink="http://www.w3.org/1999/xlink">
    <!-- Generator: Sketch 48.1 (47250) - http://www.bohemiancoding.com/sketch -->
    <title>icon/20px/time</title>
    <desc>Created with Sketch.</desc>
    <defs>
        <path d="M20,12 C20,7.589 16.411,4 12,4 C7.589,4 4,7.589 4,12 C4,16.411 7.589,20 12,20 C16.411,20 20,16.411 20,12 Z M22,12 C22,17.523 17.523,22 12,22 C6.477,22 2,17.523 2,12 C2,6.477 6.477,2 12,2 C17.523,2 22,6.477 22,12 Z M15.185,13.771 C15.574,14.16 15.574,14.796 15.185,15.186 C14.796,15.574 14.16,15.574 13.771,15.186 L11.301,12.716 C11.116,12.534 11,12.283 11,12.004 L11,8.004 L11,8.002 L11,8 L11,7 C11,6.448 11.448,6 12,6 C12.552,6 13,6.448 13,7 L13,8 L13,8.002 L13,8.004 L13,11.586 L15.185,13.771 Z" id="path-1"></path>
    </defs>
    <g id="Symbols" stroke="none" stroke-width="1" fill="none" fill-rule="evenodd">
        <g id="icon/20px/time">
            <mask id="mask-2" fill="white">
                <use xlink:href="#path-1"></use>
            </mask>
            <use id="time" fill="#3F4F71" xlink:href="#path-1"></use>
        </g>
    </g>
</svg>