<?xml version="1.0" encoding="UTF-8"?>
<svg width="24px" height="24px" viewBox="0 0 24 24" version="1.1" xmlns="http://www.w3.org/2000/svg" xmlns:xlink="http://www.w3.org/1999/xlink">
    <!-- Generator: Sketch 48.1 (47250) - http://www.bohemiancoding.com/sketch -->
    <title>icon/20px/undo</title>
    <desc>Created with Sketch.</desc>
    <defs>
        <path d="M6.25294053,11.3186205 C7.78295722,9.86133726 9.87371145,9 12.1199158,9 C15.3679158,9 18.2779158,10.802 19.6489158,13.569 C19.8959158,14.069 19.6749158,14.664 19.1559158,14.902 C18.6359158,15.139 18.0139158,14.927 17.7679158,14.429 C16.7389158,12.351 14.5569158,11 12.1199158,11 C10.3046381,11 8.62605328,11.748923 7.46151241,13 L9.24794053,13 C9.80194053,13 10.2499405,13.448 10.2499405,14 C10.2499405,14.552 9.80194053,15 9.24794053,15 L5.35194053,15 C4.74394053,15 4.24994053,14.507 4.24994053,13.9 L4.24994053,10 C4.24994053,9.448 4.69894053,9 5.25194053,9 C5.80494053,9 6.25294053,9.448 6.25294053,10 L6.25294053,11.3186205 Z" id="path-1"></path>
    </defs>
    <g id="Symbols" stroke="none" stroke-width="1" fill="none" fill-rule="evenodd">
        <g id="icon/20px/undo">
            <mask id="mask-2" fill="white">
                <use xlink:href="#path-1"></use>
            </mask>
            <use id="undo" fill="#42526E" xlink:href="#path-1"></use>
        </g>
    </g>
</svg>