<?xml version="1.0" encoding="UTF-8"?>
<svg width="24px" height="24px" viewBox="0 0 24 24" version="1.1" xmlns="http://www.w3.org/2000/svg" xmlns:xlink="http://www.w3.org/1999/xlink">
    <!-- Generator: Sketch 48.1 (47250) - http://www.bohemiancoding.com/sketch -->
    <title>icon/20px/vid-audio-on</title>
    <desc>Created with Sketch.</desc>
    <defs>
        <path d="M9,5.99715203 C9,4.34187067 10.3465171,3 12,3 C13.6568542,3 15,4.34162278 15,5.99715203 L15,12.002848 C15,13.6581293 13.6534829,15 12,15 C10.3431458,15 9,13.6583772 9,12.002848 L9,5.99715203 Z M13,17.9168469 L13,19.9906311 C13,20.5480902 12.5561352,21 12,21 C11.4477153,21 11,20.5566468 11,19.9906311 L11,17.9168068 C8.16228666,17.4394632 6,14.9660226 6,12.0062606 L6,9 C6,8.44771525 6.44771525,8 7,8 C7.55228475,8 8,8.44771525 8,9 L8,12.0062606 C8,14.2046639 9.79487533,16 12,16 C14.205539,16 16,14.2088018 16,12.0062606 L16,9 C16,8.44771525 16.4477153,8 17,8 C17.5522847,8 18,8.44771525 18,9 L18,12.0062606 C18,14.9755699 15.8331395,17.4405758 13,17.9168469 Z" id="path-1"></path>
    </defs>
    <g id="Symbols" stroke="none" stroke-width="1" fill="none" fill-rule="evenodd">
        <g id="icon/20px/vid-audio-on">
            <mask id="mask-2" fill="white">
                <use xlink:href="#path-1"></use>
            </mask>
            <use id="Combined-Shape" fill="#42526E" xlink:href="#path-1"></use>
        </g>
    </g>
</svg>