<?xml version="1.0" encoding="UTF-8"?>
<svg width="24px" height="24px" viewBox="0 0 24 24" version="1.1" xmlns="http://www.w3.org/2000/svg" xmlns:xlink="http://www.w3.org/1999/xlink">
    <!-- Generator: Sketch 48.1 (47250) - http://www.bohemiancoding.com/sketch -->
    <title>icon/20px/vid-play</title>
    <desc>Created with Sketch.</desc>
    <defs>
        <path d="M7.29109287,4.59668533 C6.85418434,4.26714512 6.5,4.44463086 6.5,5.00087166 L6.5,18.9991283 C6.5,19.5518945 6.86598969,19.7437007 7.32678783,19.4210079 L16.6732122,12.8757912 C17.1298345,12.5560227 17.1464688,12.0301467 16.7089071,11.7001138 L7.29109287,4.59668533 Z" id="path-1"></path>
    </defs>
    <g id="Symbols" stroke="none" stroke-width="1" fill="none" fill-rule="evenodd">
        <g id="icon/20px/vid-play">
            <mask id="mask-2" fill="white">
                <use xlink:href="#path-1"></use>
            </mask>
            <use id="Page-1" fill="#3F4F71" xlink:href="#path-1"></use>
        </g>
    </g>
</svg>