<?xml version="1.0" encoding="UTF-8"?>
<svg width="16px" height="16px" viewBox="0 0 16 16" version="1.1" xmlns="http://www.w3.org/2000/svg" xmlns:xlink="http://www.w3.org/1999/xlink">
    <!-- Generator: Sketch 48.2 (47327) - http://www.bohemiancoding.com/sketch -->
    <title>icon/16px/app-access-16px</title>
    <desc>Created with Sketch.</desc>
    <defs>
        <path d="M8.44608715,7.6708355 C7.32261846,8.43476658 6.58469612,9.72342466 6.58469612,11.1844337 C6.58469612,12.2095968 6.94801731,13.1499016 7.55292162,13.8836102 C5.05348525,14.2961462 1.63113255,13.7375324 1.63113255,12.207769 C1.63113255,14.6174656 1.63113255,9.6222623 1.63113255,9.6222623 C1.63113255,8.53089888 2.52385644,7.64617403 3.62208782,7.64617403 L8.13200055,7.64617403 C8.23887188,7.64617403 8.3437765,7.65460343 8.44608715,7.6708355 Z M5.87704418,6.93852209 C4.31374269,6.93852209 3.04643643,5.67121583 3.04643643,4.10791434 C3.04643643,2.54461284 4.31374269,1.27730659 5.87704418,1.27730659 C7.44034568,1.27730659 8.70765194,2.54461284 8.70765194,4.10791434 C8.70765194,5.67121583 7.44034568,6.93852209 5.87704418,6.93852209 Z M10.8306078,14.7226934 C8.87648088,14.7226934 7.29234806,13.1385606 7.29234806,11.1844337 C7.29234806,9.23030685 8.87648088,7.64617403 10.8306078,7.64617403 C12.7847346,7.64617403 14.3688674,9.23030685 14.3688674,11.1844337 C14.3688674,13.1385606 12.7847346,14.7226934 10.8306078,14.7226934 Z M9.89238347,12.8340495 C10.1466959,13.0883619 10.5584088,13.0883619 10.8127212,12.8333991 L12.7639672,10.878901 C13.0169788,10.6245886 13.0169788,10.2128757 12.7626664,9.95921373 C12.5096548,9.70620216 12.096641,9.70490133 11.8429791,9.96051456 L10.3515767,11.4538682 L9.81758571,10.9198772 C9.56392373,10.6662152 9.15221082,10.6662152 8.89789842,10.9198772 C8.64423644,11.1741896 8.64423644,11.5859025 8.89789842,11.8395645 L9.89238347,12.8340495 Z" id="path-1"></path>
    </defs>
    <g id="Symbols" stroke="none" stroke-width="1" fill="none" fill-rule="evenodd">
        <g id="icon/16px/app-access">
            <mask id="mask-2" fill="white">
                <use xlink:href="#path-1"></use>
            </mask>
            <use id="Combined-Shape" fill="#43526D" xlink:href="#path-1"></use>
        </g>
    </g>
</svg>