<?xml version="1.0" encoding="UTF-8"?>
<svg width="16px" height="16px" viewBox="0 0 16 16" version="1.1" xmlns="http://www.w3.org/2000/svg" xmlns:xlink="http://www.w3.org/1999/xlink">
    <!-- Generator: Sketch 48.2 (47327) - http://www.bohemiancoding.com/sketch -->
    <title>icon/16px/arrow-right-circle-16px</title>
    <desc>Created with Sketch.</desc>
    <defs>
        <path d="M1,8 C1,11.866 4.134,15 8,15 C11.866,15 15,11.866 15,8 C15,4.134 11.866,1 8,1 C4.134,1 1,4.134 1,8 Z M4.5,8 C4.5,7.611 4.814,7.296 5.2,7.296 L6.864,7.296 L8.201,7.296 L9.11,7.296 L8.219,6.401 C7.947,6.127 7.947,5.682 8.219,5.406 C8.493,5.132 8.937,5.132 9.211,5.406 L11.295,7.502 C11.431,7.64 11.5,7.82 11.5,8.001 C11.5,8.181 11.431,8.361 11.295,8.498 L9.211,10.594 C9.073,10.732 8.893,10.8 8.715,10.8 C8.536,10.8 8.357,10.732 8.219,10.594 C7.947,10.319 7.947,9.874 8.219,9.6 L9.11,8.704 L8.201,8.704 L6.864,8.704 L5.2,8.704 C4.814,8.704 4.5,8.389 4.5,8 Z" id="path-1"></path>
    </defs>
    <g id="Symbols" stroke="none" stroke-width="1" fill="none" fill-rule="evenodd">
        <g id="icon/16px/arrow-right-circle">
            <mask id="mask-2" fill="white">
                <use xlink:href="#path-1"></use>
            </mask>
            <use id="Clip-2" fill="#42526E" xlink:href="#path-1"></use>
        </g>
    </g>
</svg>