<?xml version="1.0" encoding="UTF-8"?>
<svg width="16px" height="16px" viewBox="0 0 16 16" version="1.1" xmlns="http://www.w3.org/2000/svg" xmlns:xlink="http://www.w3.org/1999/xlink">
    <!-- Generator: Sketch 48.2 (47327) - http://www.bohemiancoding.com/sketch -->
    <title>icon/16px/billing-filled-16px</title>
    <desc>Created with Sketch.</desc>
    <defs>
        <path d="M3.23000002,3.17798072 C3.23000002,2.07452634 4.12750005,1.17999983 5.22989663,1.17999983 L10.7701034,1.17999983 C11.8746158,1.17999983 12.77,2.07495835 12.77,3.17798072 L12.77,12.8220193 C12.77,13.9254737 11.8724999,14.8200002 10.7701034,14.8200002 L5.22989663,14.8200002 C4.12538423,14.8200002 3.23000002,13.9250417 3.23000002,12.8220193 L3.23000002,3.17798072 Z M5.27428573,4.58999991 C5.27428573,4.96928411 5.58340051,5.27199993 5.96471292,5.27199993 L10.0352871,5.27199993 C10.4170024,5.27199993 10.7257143,4.96665812 10.7257143,4.58999991 C10.7257143,4.21071571 10.4165995,3.9079999 10.0352871,3.9079999 L5.96471292,3.9079999 C5.58299761,3.9079999 5.27428573,4.21334171 5.27428573,4.58999991 Z M5.27428573,6.63599997 C5.27428573,7.01528417 5.58297921,7.31799998 5.96377192,7.31799998 L7.99194237,7.31799998 C8.36699986,7.31799998 8.68142857,7.01265817 8.68142857,6.63599997 C8.68142857,6.25671576 8.37273508,5.95399995 7.99194237,5.95399995 L5.96377192,5.95399995 C5.58871443,5.95399995 5.27428573,6.25934176 5.27428573,6.63599997 Z M5.27428573,8.68200002 C5.27428573,9.06128422 5.58297921,9.36400003 5.96377192,9.36400003 L7.99194237,9.36400003 C8.36699986,9.36400003 8.68142857,9.05865823 8.68142857,8.68200002 C8.68142857,8.30271582 8.37273508,8 7.99194237,8 L5.96377192,8 C5.58871443,8 5.27428573,8.30534181 5.27428573,8.68200002 Z M5.27428573,10.7280001 C5.27428573,11.1072843 5.58297921,11.4100001 5.96377192,11.4100001 L7.99194237,11.4100001 C8.36699986,11.4100001 8.68142857,11.1046583 8.68142857,10.7280001 C8.68142857,10.3487159 8.37273508,10.0460001 7.99194237,10.0460001 L5.96377192,10.0460001 C5.58871443,10.0460001 5.27428573,10.3513419 5.27428573,10.7280001 Z M9.36285714,8.68200002 C9.36285714,9.06128422 9.6679431,9.36400003 10.0442857,9.36400003 C10.4232521,9.36400003 10.7257143,9.05865823 10.7257143,8.68200002 C10.7257143,8.30271582 10.4206283,8 10.0442857,8 C9.66531931,8 9.36285714,8.30534181 9.36285714,8.68200002 Z M9.36285714,10.7280001 C9.36285714,11.1072843 9.6679431,11.4100001 10.0442857,11.4100001 C10.4232521,11.4100001 10.7257143,11.1046583 10.7257143,10.7280001 C10.7257143,10.3487159 10.4206283,10.0460001 10.0442857,10.0460001 C9.66531931,10.0460001 9.36285714,10.3513419 9.36285714,10.7280001 Z M9.36285714,6.63599997 C9.36285714,7.01528417 9.6679431,7.31799998 10.0442857,7.31799998 C10.4232521,7.31799998 10.7257143,7.01265817 10.7257143,6.63599997 C10.7257143,6.25671576 10.4206283,5.95399995 10.0442857,5.95399995 C9.66531931,5.95399995 9.36285714,6.25934176 9.36285714,6.63599997 Z" id="path-1"></path>
    </defs>
    <g id="Symbols" stroke="none" stroke-width="1" fill="none" fill-rule="evenodd">
        <g id="icon/16px/billing-filled">
            <mask id="mask-2" fill="white">
                <use xlink:href="#path-1"></use>
            </mask>
            <use id="Combined-Shape" fill="#42526E" fill-rule="nonzero" xlink:href="#path-1"></use>
        </g>
    </g>
</svg>