<?xml version="1.0" encoding="UTF-8"?>
<svg width="16px" height="16px" viewBox="0 0 16 16" version="1.1" xmlns="http://www.w3.org/2000/svg" xmlns:xlink="http://www.w3.org/1999/xlink">
    <!-- Generator: Sketch 48.2 (47327) - http://www.bohemiancoding.com/sketch -->
    <title>icon/16px/book-16px</title>
    <desc>Created with Sketch.</desc>
    <defs>
        <path d="M4.28636942,3.59853214 L4.28636942,11.0221194 C4.28636942,11.4281769 4.61736878,11.7666825 5.02567719,11.7666825 L10.9743228,11.7666825 C11.3751967,11.7666825 11.7136306,11.4333302 11.7136306,11.0221194 L11.7136306,3.59853214 C11.7136306,3.19247461 11.3826312,2.85396905 10.9743228,2.85396905 L5.02567719,2.85396905 C4.62480326,2.85396905 4.28636942,3.1873213 4.28636942,3.59853214 Z M6.51454777,13.9948608 L6.51454777,14.6314832 L5.40045859,13.9948608 L4.28636942,14.6314832 L4.28636942,13.9948608 L4.28636942,13.1255893 C3.42012779,12.8186902 2.80091718,11.9885076 2.80091718,11.0221194 L2.80091718,3.59853214 C2.80091718,2.36955036 3.80178938,1.36851681 5.02567719,1.36851681 L10.9743228,1.36851681 C12.205232,1.36851681 13.1990828,2.37421754 13.1990828,3.59853214 L13.1990828,11.0221194 C13.1990828,12.2511011 12.1982106,13.2521347 10.9743228,13.2521347 L6.51454777,13.2521347 L6.51454777,13.9948608 Z M6.51454777,15.480313 L4.28636942,15.480313 L6.51454777,15.480313 Z M5.77182165,4.33942128 L5.77182165,7.31032575 L10.2281784,7.31032575 L10.2281784,4.33942128 L5.77182165,4.33942128 Z M5.77182165,8.79577798 L5.77182165,10.2812302 L10.2281784,10.2812302 L10.2281784,8.79577798 L5.77182165,8.79577798 Z" id="path-1"></path>
    </defs>
    <g id="Symbols" stroke="none" stroke-width="1" fill="none" fill-rule="evenodd">
        <g id="icon/16px/book">
            <mask id="mask-2" fill="white">
                <use xlink:href="#path-1"></use>
            </mask>
            <use id="Combined-Shape" fill="#42526E" fill-rule="nonzero" xlink:href="#path-1"></use>
        </g>
    </g>
</svg>