<?xml version="1.0" encoding="UTF-8"?>
<svg width="16px" height="16px" viewBox="0 0 16 16" version="1.1" xmlns="http://www.w3.org/2000/svg" xmlns:xlink="http://www.w3.org/1999/xlink">
    <!-- Generator: Sketch 48.2 (47327) - http://www.bohemiancoding.com/sketch -->
    <title>icon/16px/canvas-16px</title>
    <desc>Created with Sketch.</desc>
    <defs>
        <path d="M6.76255172,12.921694 L6.04132909,14.6622949 C5.89213069,15.0229166 5.48130477,15.1954493 5.11785464,15.0441296 C4.75652582,14.8949312 4.58399307,14.4841053 4.73531278,14.1213623 L5.23214508,12.921694 L6.76255172,12.921694 Z M10.5992905,12.921694 L11.09569,14.1213623 C11.2455955,14.4812769 11.0765982,14.8942241 10.7131481,15.0441296 C10.3525264,15.1940351 9.94028628,15.0250379 9.78967368,14.6622949 L9.06907874,12.921694 L10.5992905,12.921694 Z M7.29289859,1.60733359 C7.29289859,1.21721975 7.60675603,0.900969998 8,0.900969998 C8.39052133,0.900969998 8.70710141,1.21397574 8.70710141,1.60733359 L8.70710141,3.02227424 L7.29289859,3.02227424 L7.29289859,1.60733359 Z M3.75739152,10.8004046 L3.75739152,4.43646233 C3.3664247,4.43389787 3.05029011,4.12100467 3.05029011,3.72937565 C3.05029011,3.33885432 3.36844951,3.02227424 3.76223197,3.02227424 L12.237768,3.02227424 C12.6309627,3.02227424 12.9497099,3.33613168 12.9497099,3.72937565 C12.9497099,4.11829559 12.6341545,4.43387946 12.2426085,4.43646111 L12.2426085,10.8004045 C12.6335753,10.802969 12.9497099,11.1158622 12.9497099,11.5074912 C12.9497099,11.8964111 12.6341545,12.211995 12.2426085,12.2145767 L12.2426085,12.2426085 L3.75739152,12.2426085 L3.75739152,12.2145779 C3.3664247,12.2120134 3.05029011,11.8991202 3.05029011,11.5074912 C3.05029011,11.1185713 3.36584555,10.8029874 3.75739152,10.8004057 L3.75739152,10.8004046 Z M5.17159435,10.7984381 C5.17159435,10.7997071 10.8223739,10.8003898 10.8223739,10.8003898 C10.8256571,10.8003898 10.8284057,4.43842875 10.8284057,4.43842875 C10.8284057,4.43715973 5.17762606,4.43647706 5.17762606,4.43647706 C5.17434285,4.43647706 5.17159435,10.7984381 5.17159435,10.7984381 Z" id="path-1"></path>
    </defs>
    <g id="Symbols" stroke="none" stroke-width="1" fill="none" fill-rule="evenodd">
        <g id="icon/16px/canvas">
            <mask id="mask-2" fill="white">
                <use xlink:href="#path-1"></use>
            </mask>
            <use id="Combined-Shape" fill="#42526E" xlink:href="#path-1"></use>
        </g>
    </g>
</svg>