<?xml version="1.0" encoding="UTF-8"?>
<svg width="16px" height="16px" viewBox="0 0 16 16" version="1.1" xmlns="http://www.w3.org/2000/svg" xmlns:xlink="http://www.w3.org/1999/xlink">
    <!-- Generator: Sketch 48.2 (47327) - http://www.bohemiancoding.com/sketch -->
    <title>confluence/16px/copy-table-column</title>
    <desc>Created with Sketch.</desc>
    <defs></defs>
    <g id="Editor-icons---v2" stroke="none" stroke-width="1" fill="none" fill-rule="evenodd">
        <g id="confluence/16px/copy-table-column" fill="#42526E">
            <path d="M6,12 L5,12 C4.44771525,12 4,11.5522847 4,11 L4,2 C4,1.44771525 4.44771525,1 5,1 L8,1 C8.55228475,1 9,1.44771525 9,2 L9,3 L6,3 L6,12 Z" id="Combined-Shape"></path>
            <path d="M7,5 C7,4.44771525 7.44771525,4 8,4 L11,4 C11.5522847,4 12,4.44771525 12,5 L12,14 C12,14.5522847 11.5522847,15 11,15 L8,15 C7.44771525,15 7,14.5522847 7,14 L7,5 Z M9,6 L9,13 L10,13 L10,6 L9,6 Z" id="Combined-Shape"></path>
        </g>
    </g>
</svg>