<?xml version="1.0" encoding="UTF-8"?>
<svg width="16px" height="16px" viewBox="0 0 16 16" version="1.1" xmlns="http://www.w3.org/2000/svg" xmlns:xlink="http://www.w3.org/1999/xlink">
    <!-- Generator: Sketch 48.2 (47327) - http://www.bohemiancoding.com/sketch -->
    <title>icon/16px/copy-16px</title>
    <desc>Created with Sketch.</desc>
    <defs></defs>
    <g id="Symbols" stroke="none" stroke-width="1" fill="none" fill-rule="evenodd">
        <g id="icon/16px/copy" fill="#42526E">
            <path d="M8.5,2.5 L3.5,2.5 L3.5,9.5 L1.5,9.5 L1.5,2.5 C1.5,1.397 2.397,0.5 3.5,0.5 L8.5,0.5 L8.5,2.5 Z M12.497,13.5 L6.5,13.5 L6.5,5.5 L12.5,5.5 L12.497,13.5 Z M12.5,3.5 L6.5,3.5 C5.397,3.5 4.5,4.397 4.5,5.5 L4.5,13.5 C4.5,14.603 5.397,15.5 6.5,15.5 L12.5,15.5 C13.603,15.5 14.5,14.603 14.5,13.5 L14.5,5.5 C14.5,4.397 13.603,3.5 12.5,3.5 Z" id="copy-small"></path>
        </g>
    </g>
</svg>