<?xml version="1.0" encoding="UTF-8"?>
<svg width="16px" height="16px" viewBox="0 0 16 16" version="1.1" xmlns="http://www.w3.org/2000/svg" xmlns:xlink="http://www.w3.org/1999/xlink">
    <!-- Generator: Sketch 48.2 (47327) - http://www.bohemiancoding.com/sketch -->
    <title>icon/16px/credit-card-filled-16px</title>
    <desc>Created with Sketch.</desc>
    <defs>
        <path d="M1.21500015,7.2373857 L14.7849998,7.2373857 L14.7849998,11.7678572 C14.7849998,12.5967858 14.1064999,13.2750001 13.2772221,13.2750001 L2.7227779,13.2750001 C1.89350014,13.2750001 1.21500015,12.5967858 1.21500015,11.7678572 L1.21500015,7.2373857 Z M3.48646732,11.0144365 L4.99424507,11.0144365 L4.99424507,9.5072936 L3.48646732,9.5072936 L3.48646732,11.0144365 Z M14.7849998,5.73401067 L1.21500015,5.73401067 L1.21500015,4.23214279 C1.21500015,3.4032142 1.89350014,2.7249999 2.7227779,2.7249999 L13.2772221,2.7249999 C14.1064999,2.7249999 14.7849998,3.4032142 14.7849998,4.23214279 L14.7849998,5.73401067 Z" id="path-1"></path>
    </defs>
    <g id="Symbols" stroke="none" stroke-width="1" fill="none" fill-rule="evenodd">
        <g id="icon/16px/credit-card-filled">
            <mask id="mask-2" fill="white">
                <use xlink:href="#path-1"></use>
            </mask>
            <use id="Combined-Shape" fill="#42526E" xlink:href="#path-1"></use>
        </g>
    </g>
</svg>