<?xml version="1.0" encoding="UTF-8"?>
<svg width="16px" height="16px" viewBox="0 0 16 16" version="1.1" xmlns="http://www.w3.org/2000/svg" xmlns:xlink="http://www.w3.org/1999/xlink">
    <!-- Generator: Sketch 48.2 (47327) - http://www.bohemiancoding.com/sketch -->
    <title>confluence/16px/cut-table-column</title>
    <desc>Created with Sketch.</desc>
    <defs></defs>
    <g id="Editor-icons---v2" stroke="none" stroke-width="1" fill="none" fill-rule="evenodd">
        <g id="confluence/16px/cut-table-column" fill="#42526E">
            <path d="M9,4 L9,3 L7,3 L7,4 L5,4 L5,2 C5,1.44771525 5.44771525,1 6,1 L10,1 C10.5522847,1 11,1.44771525 11,2 L11,4 L9,4 Z" id="Combined-Shape"></path>
            <path d="M7.98910111,10.4571546 L6.83547187,11.6061631 C6.94176356,11.8837194 7,12.1850588 7,12.5 C7,13.8807119 5.88071187,15 4.5,15 C3.11928813,15 2,13.8807119 2,12.5 C2,11.1192881 3.11928813,10 4.5,10 C4.82968654,10 5.14446777,10.0638173 5.43266447,10.1797726 L6.57464986,9.04158188 L3.46446609,5.92893219 C2.68341751,5.1478836 2.68341751,3.88155365 3.46446609,3.10050506 L7.99096169,7.62997627 L12.5355339,3.10050506 C13.3165825,3.88155365 13.3165825,5.1478836 12.5355339,5.92893219 L9.40599309,9.04593787 L10.5472578,10.1879528 C10.8408889,10.0668222 11.1626409,10 11.5,10 C12.8807119,10 14,11.1192881 14,12.5 C14,13.8807119 12.8807119,15 11.5,15 C10.1192881,15 9,13.8807119 9,12.5 C9,12.1925487 9.05549942,11.89806 9.15702632,11.6260058 L7.98910111,10.4571546 Z M5,12.5 C5,12.2238576 4.77614237,12 4.5,12 C4.22385763,12 4,12.2238576 4,12.5 C4,12.7761424 4.22385763,13 4.5,13 C4.77614237,13 5,12.7761424 5,12.5 Z M12,12.5 C12,12.2238576 11.7761424,12 11.5,12 C11.2238576,12 11,12.2238576 11,12.5 C11,12.7761424 11.2238576,13 11.5,13 C11.7761424,13 12,12.7761424 12,12.5 Z" id="Combined-Shape"></path>
        </g>
    </g>
</svg>