<?xml version="1.0" encoding="UTF-8"?>
<svg width="16px" height="16px" viewBox="0 0 16 16" version="1.1" xmlns="http://www.w3.org/2000/svg" xmlns:xlink="http://www.w3.org/1999/xlink">
    <!-- Generator: Sketch 48.2 (47327) - http://www.bohemiancoding.com/sketch -->
    <title>icon/16px/edit-16px</title>
    <desc>Created with Sketch.</desc>
    <defs>
        <path d="M1.37482691,13.6712098 L2.00547961,10.5915225 L5.40857857,13.9946215 L2.32889125,14.6252742 C1.76049529,14.7417023 1.25839872,14.2396058 1.37482691,13.6712098 Z M14.1685062,3.54648507 C14.7999674,4.1779463 14.7999674,5.20154413 14.1685062,5.83300536 L6.27968782,13.7226323 L2.2774688,9.72041325 L10.1662872,1.83078633 C10.4824221,1.51545999 10.896389,1.35779681 11.3103559,1.35779681 C11.7235142,1.35779681 12.1374811,1.51545999 12.453616,1.83078633 L14.1685062,3.54648507 Z M6.16164257,11.5533487 L13.0252461,4.68974521 L11.3103559,2.974855 L11.3087388,2.974855 L4.44675236,9.83845849 L6.16164257,11.5533487 Z" id="path-1"></path>
    </defs>
    <g id="Symbols" stroke="none" stroke-width="1" fill="none" fill-rule="evenodd">
        <g id="icon/16px/edit">
            <mask id="mask-2" fill="white">
                <use xlink:href="#path-1"></use>
            </mask>
            <use id="edit-small" fill="#42526E" xlink:href="#path-1"></use>
        </g>
    </g>
</svg>