<?xml version="1.0" encoding="UTF-8"?>
<svg width="16px" height="16px" viewBox="0 0 16 16" version="1.1" xmlns="http://www.w3.org/2000/svg" xmlns:xlink="http://www.w3.org/1999/xlink">
    <!-- Generator: Sketch 48.2 (47327) - http://www.bohemiancoding.com/sketch -->
    <title>icon/16px/following-16px</title>
    <desc>Created with Sketch.</desc>
    <defs>
        <path d="M13.9709441,3.51675369 C13.9720782,3.71225007 13.895072,3.90015263 13.756936,4.03895412 L12.7606915,4.98774082 L13.7200381,5.95859233 C13.930634,6.13833952 14.0223665,6.42056938 13.9575207,6.6892456 C13.8926749,6.95792182 13.6821952,7.1676984 13.4126184,7.23232754 C13.1430416,7.2969567 12.8598657,7.20553059 12.679516,6.99563826 L11.2035982,5.52465113 C10.9174741,5.23778109 10.9174741,4.77447523 11.2035982,4.4876052 L12.7237936,2.97248845 C12.939076,2.76787214 13.2565778,2.71209358 13.5290811,2.83101591 C13.8015844,2.94993825 13.9757983,3.220305 13.9709441,3.51675369 Z M2.02198969,9.97922529 C2.02198969,8.88612935 2.91456423,8 4.01206105,8 L8.99893379,8 C10.0980199,8 10.9890052,8.89090547 10.9890052,9.99947605 L10.9890052,12.8168563 C10.9890052,15.3613967 2.02198969,15.3613967 2.02198969,12.8168563 C2.02198969,15.3613967 2.02198969,9.97922529 2.02198969,9.97922529 Z M6.50549742,7.25274871 C4.85471546,7.25274871 3.51649227,5.91452552 3.51649227,4.26374355 C3.51649227,2.61296159 4.85471546,1.2747384 6.50549742,1.2747384 C8.15627939,1.2747384 9.49450258,2.61296159 9.49450258,4.26374355 C9.49450258,5.91452552 8.15627939,7.25274871 6.50549742,7.25274871 Z" id="path-1"></path>
    </defs>
    <g id="Symbols" stroke="none" stroke-width="1" fill="none" fill-rule="evenodd">
        <g id="icon/16px/following">
            <mask id="mask-2" fill="white">
                <use xlink:href="#path-1"></use>
            </mask>
            <use id="Combined-Shape" fill="#41516F" xlink:href="#path-1"></use>
        </g>
    </g>
</svg>