<?xml version="1.0" encoding="UTF-8"?>
<svg width="16px" height="16px" viewBox="0 0 16 16" version="1.1" xmlns="http://www.w3.org/2000/svg" xmlns:xlink="http://www.w3.org/1999/xlink">
    <!-- Generator: Sketch 48.2 (47327) - http://www.bohemiancoding.com/sketch -->
    <title>icon/16px/home-filled-16px</title>
    <desc>Created with Sketch.</desc>
    <defs>
        <path d="M12.5988402,7.89711516 L12.5988402,13.7939756 C12.5988402,14.3463094 12.1553013,14.7940644 11.5972086,14.7940644 L9.53352943,14.7940644 L9.53352943,11.7271544 C9.53352943,10.874544 8.84733624,10.1960983 8.00087403,10.1960983 C7.14851045,10.1960983 6.46821864,10.8815755 6.46821864,11.7271544 L6.46821864,14.7940644 L4.40453942,14.7940644 C3.85135358,14.7940644 3.40290784,14.3408523 3.40290784,13.7939756 L3.40290784,7.89711516 L2.09594792,7.89711516 C1.54806865,7.89711516 1.41819417,7.58284574 1.81604235,7.18499757 L7.64937135,1.35166856 C7.84350092,1.15753899 8.15788501,1.15717685 8.35237672,1.35166856 L14.1857057,7.18499757 C14.5789974,7.57828926 14.4544985,7.89711516 13.9058002,7.89711516 L12.5988402,7.89711516 Z" id="path-1"></path>
    </defs>
    <g id="Symbols" stroke="none" stroke-width="1" fill="none" fill-rule="evenodd">
        <g id="icon/16px/home-filled">
            <mask id="mask-2" fill="white">
                <use xlink:href="#path-1"></use>
            </mask>
            <use id="Combined-Shape-Copy" fill="#42526E" xlink:href="#path-1"></use>
        </g>
    </g>
</svg>