<?xml version="1.0" encoding="UTF-8"?>
<svg width="16px" height="16px" viewBox="0 0 16 16" version="1.1" xmlns="http://www.w3.org/2000/svg" xmlns:xlink="http://www.w3.org/1999/xlink">
    <!-- Generator: Sketch 48.2 (47327) - http://www.bohemiancoding.com/sketch -->
    <title>confluence/16px/italic</title>
    <desc>Created with Sketch.</desc>
    <defs></defs>
    <g id="Editor-icons---v2" stroke="none" stroke-width="1" fill="none" fill-rule="evenodd">
        <g id="confluence/16px/italic" fill="#42526E">
            <path d="M5,2.50468445 C5,2.22595492 5.23079681,2 5.50043583,2 L12.4995642,2 C12.7759472,2 13,2.21403503 13,2.50468445 L13,3.49531555 C13,3.77404508 12.7692032,4 12.4995642,4 L5.50043583,4 C5.22405275,4 5,3.78596497 5,3.49531555 L5,2.50468445 Z" id="Rectangle-4"></path>
            <path d="M3,12.5046844 C3,12.2259549 3.23079681,12 3.50043583,12 L10.4995642,12 C10.7759472,12 11,12.214035 11,12.5046844 L11,13.4953156 C11,13.7740451 10.7692032,14 10.4995642,14 L3.50043583,14 C3.22405275,14 3,13.785965 3,13.4953156 L3,12.5046844 Z" id="Rectangle-4"></path>
            <polygon id="Rectangle-3" points="8 4 10 4 8 12 6 12"></polygon>
        </g>
    </g>
</svg>