<?xml version="1.0" encoding="UTF-8"?>
<svg width="16px" height="16px" viewBox="0 0 16 16" version="1.1" xmlns="http://www.w3.org/2000/svg" xmlns:xlink="http://www.w3.org/1999/xlink">
    <!-- Generator: Sketch 48.2 (47327) - http://www.bohemiancoding.com/sketch -->
    <title>icon/16px/lock-16px</title>
    <desc>Created with Sketch.</desc>
    <defs>
        <path d="M11.5,5.875 C12.6,5.875 13.5,6.775 13.5,7.875 L13.5,12.875 C13.5,13.975 12.6,14.875 11.5,14.875 L4.5,14.875 C3.4,14.875 2.5,13.975 2.5,12.875 L2.5,7.875 C2.5,6.775 3.4,5.875 4.5,5.875 L5.25,5.875 L5.25,3.875 C5.25,2.358 6.483,1.125 8,1.125 C9.517,1.125 10.75,2.358 10.75,3.875 L10.75,5.875 L11.5,5.875 Z M6.75,3.875 L6.75,5.875 L9.25,5.875 L9.25,3.875 C9.25,3.186 8.689,2.625 8,2.625 C7.311,2.625 6.75,3.186 6.75,3.875 Z M11.5,12.875 L11.5,7.875 L10.75,7.875 L9.25,7.875 L6.75,7.875 L5.25,7.875 L4.5,7.875 L4.5,12.875 L11.5,12.875 Z M9,10.375 C9,10.927 8.552,11.375 8,11.375 C7.448,11.375 7,10.927 7,10.375 C7,9.823 7.448,9.375 8,9.375 C8.552,9.375 9,9.823 9,10.375 Z" id="path-1"></path>
    </defs>
    <g id="Symbols" stroke="none" stroke-width="1" fill="none" fill-rule="evenodd">
        <g id="icon/16px/lock">
            <mask id="mask-2" fill="white">
                <use xlink:href="#path-1"></use>
            </mask>
            <use id="lock" fill="#42526E" xlink:href="#path-1"></use>
        </g>
    </g>
</svg>
