<?xml version="1.0" encoding="UTF-8"?>
<svg width="16px" height="16px" viewBox="0 0 16 16" version="1.1" xmlns="http://www.w3.org/2000/svg" xmlns:xlink="http://www.w3.org/1999/xlink">
    <!-- Generator: Sketch 48.2 (47327) - http://www.bohemiancoding.com/sketch -->
    <title>icon/16px/menu-16px</title>
    <desc>Created with Sketch.</desc>
    <defs>
        <path d="M12.9092,11 L3.0908,11 C2.4884,11 2,11.448 2,12 C2,12.552 2.4884,13 3.0908,13 L12.9092,13 C13.5116,13 14,12.552 14,12 C14,11.448 13.5116,11 12.9092,11 M12.9092,7 L3.0908,7 C2.4884,7 2,7.448 2,8 C2,8.552 2.4884,9 3.0908,9 L12.9092,9 C13.5116,9 14,8.552 14,8 C14,7.448 13.5116,7 12.9092,7 M2,4 C2,3.448 2.4884,3 3.0908,3 L12.9092,3 C13.5116,3 14,3.448 14,4 C14,4.552 13.5116,5 12.9092,5 L3.0908,5 C2.4884,5 2,4.552 2,4" id="path-1"></path>
    </defs>
    <g id="Symbols" stroke="none" stroke-width="1" fill="none" fill-rule="evenodd">
        <g id="icon/16px/menu">
            <mask id="mask-2" fill="white">
                <use xlink:href="#path-1"></use>
            </mask>
            <use id="menu" fill="#42526E" xlink:href="#path-1"></use>
        </g>
    </g>
</svg>