<?xml version="1.0" encoding="UTF-8"?>
<svg width="16px" height="16px" viewBox="0 0 16 16" version="1.1" xmlns="http://www.w3.org/2000/svg" xmlns:xlink="http://www.w3.org/1999/xlink">
    <!-- Generator: Sketch 52.5 (67469) - http://www.bohemiancoding.com/sketch -->
    <title>icon/16px/notification-direct</title>
    <desc>Created with Sketch.</desc>
    <defs>
        <path d="M4.46694926,11.8033957 C3.9573275,11.2937739 3.9573275,10.4670252 4.46694926,9.95740339 L6.31294154,11.8033957 C5.80331978,12.3130174 4.97657102,12.3130174 4.46694926,11.8033957 Z M7.59790584,3.74406353 C8.24129516,3.10132673 9.08435703,2.77963207 9.9274189,2.77963207 C10.5616729,2.77963207 11.1965794,2.96233898 11.7466577,3.32710027 C11.7597082,3.31013463 11.7747162,3.29447403 11.7897243,3.27881344 C12.0474715,3.02171872 12.4644348,3.02171872 12.7215295,3.27881344 C12.9786242,3.53656068 12.9786242,3.95352395 12.7215295,4.20996614 C12.7058689,4.22562673 12.6895558,4.2406348 12.6732427,4.25368529 C13.5221773,5.53328616 13.3831895,7.27422197 12.2556269,8.40113206 C11.4840546,9.17306478 10.4544322,10.6064465 9.96389102,11.586713 L9.28924978,12.9348734 C9.12677114,13.2611358 8.78484821,13.3159478 8.52514339,13.0568955 L2.94214236,7.47454704 C2.68309007,7.21549475 2.74116476,6.87161425 3.06416447,6.70978813 L4.4126054,6.03570792 C5.40022592,5.54200039 6.83397649,4.50834969 7.59790584,3.74406353 Z M9.05944165,10.6413246 C9.57699485,9.66649868 10.6298993,8.2426058 11.3940925,7.47805578 C12.0659735,6.80656363 12.1652192,5.75662958 11.6467654,4.97516308 C11.5232141,4.78893395 11.0864361,4.41475009 11.0864361,4.41475009 C10.7600163,4.19829855 10.3781449,4.0846814 9.98842658,4.0846814 C9.46327074,4.0846814 8.9608274,4.28831015 8.58155446,4.66704119 L8.44969751,4.79895973 C7.66839081,5.58063135 6.231372,6.61603997 5.2472048,7.10802104 L4.7372576,7.3629415 L8.69761438,11.3228363 L9.05944165,10.6413246 Z" id="path-1"/>
    </defs>
    <g id="icon/16px/notification-direct" stroke="none" stroke-width="1" fill="none" fill-rule="evenodd">
        <use id="Combined-Shape" fill="#42526E" xlink:href="#path-1"/>
    </g>
</svg>