<?xml version="1.0" encoding="UTF-8"?>
<svg width="16px" height="16px" viewBox="0 0 16 16" version="1.1" xmlns="http://www.w3.org/2000/svg" xmlns:xlink="http://www.w3.org/1999/xlink">
    <!-- Generator: Sketch 48.2 (47327) - http://www.bohemiancoding.com/sketch -->
    <title>icon/16px/notification-all-16px</title>
    <desc>Created with Sketch.</desc>
    <defs>
        <path d="M7.54793047,3.10117129 C8.29032265,2.35953204 9.2631124,1.98833595 10.2359022,1.98833595 C10.9677533,1.98833595 11.7003573,2.19915726 12.33508,2.62004695 C12.3501387,2.60047068 12.3674562,2.58240028 12.3847736,2.56432989 C12.6821823,2.26767419 13.1633066,2.26767419 13.4599623,2.56432989 C13.756618,2.86173852 13.756618,3.34286286 13.4599623,3.63876563 C13.4418919,3.65683603 13.4230686,3.67415349 13.4042452,3.68921216 C14.3838114,5.16571425 14.2234366,7.17454015 12.922368,8.47485586 L12.7247014,8.67261472 C11.94357,9.45411098 10.9084617,10.8907229 10.4155456,11.8757352 L9.49953344,13.706236 C9.31205306,14.0827027 8.91751604,14.1459491 8.61784861,13.8470346 L2.17575176,7.40569065 C1.87683727,7.10677615 1.94384832,6.70998033 2.31655028,6.52325289 L4.14743203,5.60800245 C5.13517583,5.11423329 6.57301736,4.07653975 7.35026394,3.29893014 L7.54793047,3.10117129 Z M4.94297884,1.70045255 L5.24490507,2.42929194 C5.40377399,2.81328789 5.22156414,3.25375384 4.83756819,3.41262275 C4.4528193,3.5722446 4.01235335,3.38928182 3.85348443,3.00528587 L3.5515582,2.27644649 C3.39268929,1.89245053 3.57489913,1.45198458 3.95889509,1.29311567 C4.34364398,1.13349382 4.78410993,1.3164566 4.94297884,1.70045255 Z M2.27684222,3.55159982 L3.0056816,3.85352605 C3.38967756,4.0131479 3.5718874,4.45361385 3.41301849,4.8376098 C3.25339664,5.22160576 2.81293069,5.4038156 2.42893473,5.24494669 L1.70009535,4.94302046 C1.3160994,4.78339861 1.13388955,4.34293266 1.29275847,3.9589367 C1.45238032,3.57494075 1.89284626,3.3927309 2.27684222,3.55159982 Z M11.1872769,12.5866243 C11.2813936,12.5482247 11.3792749,12.5294014 11.4748974,12.5294014 C11.7708002,12.5294014 12.0516443,12.7048348 12.1713607,12.9947141 L12.4732869,13.7228006 C12.6321558,14.1083024 12.4491931,14.5487683 12.06595,14.7068843 C11.6812012,14.8665062 11.2407352,14.6835434 11.0818663,14.2995474 L10.7791871,13.5707081 C10.6210711,13.1867121 10.8040339,12.7462462 11.1872769,12.5866243 Z M12.5870839,11.1884276 C12.7068002,10.8977953 12.9876443,10.7223619 13.2827942,10.7223619 C13.3791696,10.7223619 13.476298,10.7411852 13.5704147,10.7803377 L14.300007,11.082264 C14.68325,11.2418858 14.8662128,11.6815988 14.7073439,12.0655948 C14.547722,12.4503437 14.1065032,12.6325535 13.7232601,12.4736846 L12.9936678,12.1717584 C12.6104248,12.0121365 12.427462,11.5716706 12.5870839,11.1884276 Z M3.85933345,12.279804 C3.27129259,11.6917632 3.27129259,10.7377967 3.85933345,10.1497559 L5.9893816,12.279804 C5.40134074,12.8678449 4.44737432,12.8678449 3.85933345,12.279804 Z" id="path-1"></path>
    </defs>
    <g id="Symbols" stroke="none" stroke-width="1" fill="none" fill-rule="evenodd">
        <g id="icon/16px/notification-all">
            <mask id="mask-2" fill="white">
                <use xlink:href="#path-1"></use>
            </mask>
            <use id="Combined-Shape" fill="#42526E" fill-rule="nonzero" xlink:href="#path-1"></use>
        </g>
    </g>
</svg>