<?xml version="1.0" encoding="UTF-8"?>
<svg width="16px" height="16px" viewBox="0 0 16 16" version="1.1" xmlns="http://www.w3.org/2000/svg" xmlns:xlink="http://www.w3.org/1999/xlink">
    <!-- Generator: Sketch 48.2 (47327) - http://www.bohemiancoding.com/sketch -->
    <title>icon/16px/office-building-16px</title>
    <desc>Created with Sketch.</desc>
    <defs>
        <path d="M4.98049298,3.47073947 L4.98049298,5.08933861 C3.76334118,5.0887125 2.72230196,5.08833252 2.72230196,5.08833252 C2.71931764,5.08833252 2.71586271,13.1715593 2.71586271,13.1715593 C2.71586271,13.1726149 3.76057593,13.1736125 4.98049298,13.1744176 L4.98049298,14.7938908 L2.72230196,14.7938908 C1.88493182,14.7938908 1.2061092,14.0683517 1.2061092,13.1715593 L1.2061092,5.09307098 C1.2061092,4.19708203 1.88697056,3.47073947 2.72230196,3.47073947 L4.98049298,3.47073947 Z M5.73536973,2.71215573 C5.73536973,1.8803892 6.41623109,1.2061092 7.25156249,1.2061092 L13.277698,1.2061092 C14.1150682,1.2061092 14.7938908,1.8799294 14.7938908,2.71215573 L14.7938908,13.2878443 C14.7938908,14.1196108 14.1130294,14.7938908 13.277698,14.7938908 L5.73536973,14.7938908 L5.73536973,2.71215573 Z M13.277698,13.2841373 C13.2824918,13.2841373 13.2841373,2.71215573 13.2841373,2.71215573 C13.2841373,2.71625151 7.25156249,2.71586271 7.25156249,2.71586271 C7.24676875,2.71586271 7.24512324,13.2841373 7.24512324,13.2841373 L13.277698,13.2841373 Z M8,4.22561622 L9.50975351,4.22561622 L9.50975351,5.73536973 L8,5.73536973 L8,4.22561622 Z M3.47073947,6.49024649 L4.98049298,6.49024649 L4.98049298,8 L3.47073947,8 L3.47073947,6.49024649 Z M3.47073947,8.75487676 L4.98049298,8.75487676 L4.98049298,10.2646303 L3.47073947,10.2646303 L3.47073947,8.75487676 Z M8,6.49024649 L9.50975351,6.49024649 L9.50975351,8 L8,8 L8,6.49024649 Z M8,8.75487676 L9.50975351,8.75487676 L9.50975351,10.2646303 L8,10.2646303 L8,8.75487676 Z M9.50975351,11.019507 L11.019507,11.019507 L11.019507,13.2841373 L9.50975351,13.2841373 L9.50975351,11.019507 Z M11.019507,4.22561622 L12.5292605,4.22561622 L12.5292605,5.73536973 L11.019507,5.73536973 L11.019507,4.22561622 Z M11.019507,6.49024649 L12.5292605,6.49024649 L12.5292605,8 L11.019507,8 L11.019507,6.49024649 Z M11.019507,8.75487676 L12.5292605,8.75487676 L12.5292605,10.2646303 L11.019507,10.2646303 L11.019507,8.75487676 Z" id="path-1"></path>
    </defs>
    <g id="Symbols" stroke="none" stroke-width="1" fill="none" fill-rule="evenodd">
        <g id="icon/16px/office-building">
            <mask id="mask-2" fill="white">
                <use xlink:href="#path-1"></use>
            </mask>
            <use id="Combined-Shape" fill="#42526E" fill-rule="nonzero" xlink:href="#path-1"></use>
        </g>
    </g>
</svg>