<?xml version="1.0" encoding="UTF-8"?>
<svg width="16px" height="16px" viewBox="0 0 16 16" version="1.1" xmlns="http://www.w3.org/2000/svg" xmlns:xlink="http://www.w3.org/1999/xlink">
    <!-- Generator: Sketch 48.2 (47327) - http://www.bohemiancoding.com/sketch -->
    <title>confluence/16px/cell-color-underline</title>
    <desc>Created with Sketch.</desc>
    <defs></defs>
    <g id="Editor-icons---v2" stroke="none" stroke-width="1" fill="none" fill-rule="evenodd">
        <g id="confluence/16px/cell-color-underline" fill="#42526E">
            <g id="Group-28" transform="translate(1.000000, 0.000000)">
                <path d="M6.16571889,3.44983194 L2.44410426,7.17144657 L5.57026055,10.2976029 L9.29187519,6.57598823 L6.16571889,3.44983194 Z M7.57993246,2.03561837 L10.7060888,5.16177467 C11.4871373,5.94282325 11.4871373,7.20915321 10.7060888,7.99020179 L6.98447411,11.7118164 C6.20342553,12.492865 4.93709557,12.492865 4.15604699,11.7118164 L1.02989069,8.58566014 C0.24884211,7.80461155 0.24884211,6.53828159 1.02989069,5.75723301 L4.75150533,2.03561837 C5.53255391,1.25456979 6.79888387,1.25456979 7.57993246,2.03561837 Z" id="Rectangle-29-Copy" fill-rule="nonzero"></path>
                <path d="M5.97038501,5.56845903 C6.21925151,6.06149443 6.02131351,6.66292476 5.5282781,6.91179126 C5.0352427,7.16065776 4.43381237,6.96271976 4.18494587,6.46968435 L2.1139943,2.36687243 C1.8651278,1.87383702 2.0630658,1.2724067 2.55610121,1.0235402 C3.04913661,0.774673695 3.65056694,0.972611701 3.89943344,1.4656471 L5.97038501,5.56845903 Z" id="Line-4-Copy" fill-rule="nonzero"></path>
                <path d="M10.0810775,11.0039225 C10.083289,9.86111308 11.1707437,9.74895528 11.2662772,8.12568303 C11.2887574,7.74370836 12.947988,9.26043085 12.9445368,10.9982117 C12.9431716,11.7352619 12.3744684,12.4117155 11.5838129,12.4133406 C10.7931574,12.4149657 10.0796369,11.7408973 10.0810775,11.0039225 Z" id="Shape-path"></path>
            </g>
            <path d="M2,13.5046844 C2,13.2259549 2.22900057,13 2.50034732,13 L13.4996527,13 C13.7759869,13 14,13.214035 14,13.5046844 L14,14.4953156 C14,14.7740451 13.7709994,15 13.4996527,15 L2.50034732,15 C2.22401312,15 2,14.785965 2,14.4953156 L2,13.5046844 Z" id="Rectangle-7"></path>
        </g>
    </g>
</svg>