<?xml version="1.0" encoding="UTF-8"?>
<svg width="16px" height="16px" viewBox="0 0 16 16" version="1.1" xmlns="http://www.w3.org/2000/svg" xmlns:xlink="http://www.w3.org/1999/xlink">
    <!-- Generator: Sketch 48.2 (47327) - http://www.bohemiancoding.com/sketch -->
    <title>icon/16px/question-filled-16px</title>
    <desc>Created with Sketch.</desc>
    <defs>
        <path d="M8,15 C4.13400675,15 1,11.8659932 1,8 C1,4.13400675 4.13400675,1 8,1 C11.8659932,1 15,4.13400675 15,8 C15,11.8659932 11.8659932,15 8,15 Z M8.77777778,11.8888889 C8.77777778,11.4595556 8.42933333,11.1111111 8,11.1111111 C7.57066667,11.1111111 7.22222222,11.4595556 7.22222222,11.8888889 C7.22222222,12.3182222 7.57066667,12.6666667 8,12.6666667 C8.42933333,12.6666667 8.77777778,12.3182222 8.77777778,11.8888889 Z M10.7222222,6.05555556 C10.7222222,4.55444444 9.50111111,3.33333333 8,3.33333333 C6.49888889,3.33333333 5.27777778,4.55444444 5.27777778,6.05555556 C5.27777778,6.48488889 5.62622222,6.83333333 6.05555556,6.83333333 C6.48488889,6.83333333 6.83333333,6.48488889 6.83333333,6.05555556 C6.83333333,5.41233333 7.35677778,4.88888889 8,4.88888889 C8.64322222,4.88888889 9.16666667,5.41233333 9.16666667,6.05555556 C9.16666667,6.69877778 8.64322222,7.22222222 8,7.22222222 C7.57066667,7.22222222 7.22222222,7.57066667 7.22222222,8 L7.22222222,9.55555556 C7.22222222,9.98488889 7.57066667,10.3333333 8,10.3333333 C8.42933333,10.3333333 8.77777778,9.98488889 8.77777778,9.55555556 L8.77777778,8.66422222 C9.90088889,8.329 10.7222222,7.28677778 10.7222222,6.05555556 Z" id="path-1"></path>
    </defs>
    <g id="Symbols" stroke="none" stroke-width="1" fill="none" fill-rule="evenodd">
        <g id="icon/16px/question-filled">
            <mask id="mask-2" fill="white">
                <use xlink:href="#path-1"></use>
            </mask>
            <use id="question-filled-small" fill="#3E4E72" xlink:href="#path-1"></use>
        </g>
    </g>
</svg>