<?xml version="1.0" encoding="UTF-8"?>
<svg width="16px" height="16px" viewBox="0 0 16 16" version="1.1" xmlns="http://www.w3.org/2000/svg" xmlns:xlink="http://www.w3.org/1999/xlink">
    <!-- Generator: Sketch 48.2 (47327) - http://www.bohemiancoding.com/sketch -->
    <title>icon/16px/quote-16px</title>
    <desc>Created with Sketch.</desc>
    <defs>
        <path d="M11.2850033,2.18862181 C9.86279819,2.18862181 8.70765258,3.37635773 8.70765258,4.84111133 C8.70765258,6.30495964 9.86279819,7.49269557 11.2850033,7.49269557 C13.7283717,7.49269557 12.3125035,12.0996987 9.23090819,12.5795006 C8.93035306,12.6265755 8.70765258,12.8827715 8.70765258,13.1869478 L8.70765258,13.1869478 C8.70765258,13.563547 9.04441917,13.8613863 9.41739722,13.8043532 C15.018405,12.9551945 17.0100353,2.18862181 11.2850033,2.18862181 M3.85893794,2.18862181 C2.43492223,2.18862181 1.28068191,3.37635773 1.28068191,4.84111133 C1.28068191,6.30495964 2.43492223,7.49269557 3.85893794,7.49269557 C6.30140099,7.49269557 4.88553286,12.0996987 1.80393752,12.5795006 C1.5033824,12.6265755 1.28068191,12.8827715 1.28068191,13.1869478 L1.28068191,13.1869478 C1.28068191,13.563547 1.6174485,13.8613863 1.98952126,13.8043532 C7.59233958,12.9551945 9.58396994,2.18862181 3.85893794,2.18862181" id="path-1"></path>
    </defs>
    <g id="Symbols" stroke="none" stroke-width="1" fill="none" fill-rule="evenodd">
        <g id="icon/16px/quote">
            <mask id="mask-2" fill="white">
                <use xlink:href="#path-1"></use>
            </mask>
            <use id="quote-small" fill="#42526E" xlink:href="#path-1"></use>
        </g>
    </g>
</svg>