<?xml version="1.0" encoding="UTF-8"?>
<svg width="16px" height="16px" viewBox="0 0 16 16" version="1.1" xmlns="http://www.w3.org/2000/svg" xmlns:xlink="http://www.w3.org/1999/xlink">
    <!-- Generator: Sketch 48.2 (47327) - http://www.bohemiancoding.com/sketch -->
    <title>confluence/16px/remove-row</title>
    <desc>Created with Sketch.</desc>
    <defs></defs>
    <g id="Editor-icons---v2" stroke="none" stroke-width="1" fill="none" fill-rule="evenodd">
        <g id="confluence/16px/remove-row" fill="#42526E" fill-rule="nonzero">
            <path d="M2.58578644,5 L1.29289322,3.70710678 C0.902368927,3.31658249 0.902368927,2.68341751 1.29289322,2.29289322 C1.68341751,1.90236893 2.31658249,1.90236893 2.70710678,2.29289322 L12.7071068,12.2928932 C13.0976311,12.6834175 13.0976311,13.3165825 12.7071068,13.7071068 C12.3165825,14.0976311 11.6834175,14.0976311 11.2928932,13.7071068 L8.58578644,11 L2,11 C1.44771525,11 1,10.5522847 1,10 L1,6 C1,5.44771525 1.44771525,5 2,5 L2.58578644,5 Z M6.58578644,9 L4.58578644,7 L3,7 L3,9 L6.58578644,9 Z M7.41421356,5 L14,5 C14.5522847,5 15,5.44771525 15,6 L15,10 C15,10.5522847 14.5522847,11 14,11 L13.4142136,11 L11.4142136,9 L13,9 L13,7 L9.41421356,7 L7.41421356,5 Z" id="Combined-Shape"></path>
        </g>
    </g>
</svg>