<?xml version="1.0" encoding="UTF-8"?>
<svg width="16px" height="16px" viewBox="0 0 16 16" version="1.1" xmlns="http://www.w3.org/2000/svg" xmlns:xlink="http://www.w3.org/1999/xlink">
    <!-- Generator: Sketch 48.2 (47327) - http://www.bohemiancoding.com/sketch -->
    <title>icon/16px/ship-16px</title>
    <desc>Created with Sketch.</desc>
    <defs>
        <path d="M2.58054639,8 L2.58054639,5.96204723 C2.58054639,5.59146954 2.88920401,5.29105696 3.25945716,5.29105696 L3.93501792,5.29105696 L3.93501792,4.61712713 C3.93501792,3.86724735 4.54335213,3.25934968 5.28807613,3.25934968 L6.64537426,3.25934968 C7.39264768,3.25934968 7.99843248,3.86473059 7.99843248,4.61712713 L7.99843248,5.29105696 L10.0284648,5.29105696 C10.4034168,5.29105696 10.7073755,5.59647348 10.7073755,5.96204723 L10.7073755,8 L14.2801692,8 C14.6531037,8 14.8611394,8.28235229 14.7419269,8.6393452 L13.5858563,12.1013051 C13.4679436,12.4544057 13.0725479,12.7406503 12.695372,12.7406503 L2.39459449,12.7406503 C2.0207063,12.7406503 1.68204253,12.4441014 1.63735172,12.0714856 L1.22928406,8.66916475 C1.18495862,8.29959526 1.45023196,8 1.82428332,8 L2.58054639,8 Z M3.93501792,8 L9.352904,8 L9.352904,6.64552848 L7.99843248,6.64552848 L3.93501792,6.64552848 L3.93501792,8 Z M6.64396096,4.61712713 C6.64396096,4.61477055 6.64423057,4.61402566 6.64457007,4.6138212 L5.28807613,4.6138212 C5.29118773,4.6138212 5.28948944,4.6155232 5.28948944,4.61712713 L5.28948944,5.29105696 L6.64396096,5.29105696 L6.64396096,4.61712713 Z M2.91933624,11.3861788 L12.3966659,11.3861788 L13.0751246,9.35447152 L2.67565726,9.35447152 L2.91933624,11.3861788 Z" id="path-1"></path>
    </defs>
    <g id="Symbols" stroke="none" stroke-width="1" fill="none" fill-rule="evenodd">
        <g id="icon/16px/ship">
            <mask id="mask-2" fill="white">
                <use xlink:href="#path-1"></use>
            </mask>
            <use id="Combined-Shape" fill="#42526E" xlink:href="#path-1"></use>
        </g>
    </g>
</svg>