<?xml version="1.0" encoding="UTF-8"?>
<svg width="16px" height="16px" viewBox="0 0 16 16" version="1.1" xmlns="http://www.w3.org/2000/svg" xmlns:xlink="http://www.w3.org/1999/xlink">
    <!-- Generator: Sketch 48.2 (47327) - http://www.bohemiancoding.com/sketch -->
    <title>confluence/16px/three-column</title>
    <desc>Created with Sketch.</desc>
    <defs></defs>
    <g id="Editor-icons---v2" stroke="none" stroke-width="1" fill="none" fill-rule="evenodd">
        <g id="confluence/16px/three-column" fill="#42526E">
            <path d="M7,2 L9,2 C9.55228475,2 10,2.44771525 10,3 L10,13 C10,13.5522847 9.55228475,14 9,14 L7,14 C6.44771525,14 6,13.5522847 6,13 L6,3 C6,2.44771525 6.44771525,2 7,2 Z" id="Rectangle-16-Copy-5"></path>
            <path d="M2,2 L4,2 C4.55228475,2 5,2.44771525 5,3 L5,13 C5,13.5522847 4.55228475,14 4,14 L2,14 C1.44771525,14 1,13.5522847 1,13 L1,3 C1,2.44771525 1.44771525,2 2,2 Z" id="Rectangle-16-Copy-7"></path>
            <path d="M12,2 L14,2 C14.5522847,2 15,2.44771525 15,3 L15,13 C15,13.5522847 14.5522847,14 14,14 L12,14 C11.4477153,14 11,13.5522847 11,13 L11,3 C11,2.44771525 11.4477153,2 12,2 Z" id="Rectangle-16-Copy-6"></path>
        </g>
    </g>
</svg>