<?xml version="1.0" encoding="UTF-8"?>
<svg width="16px" height="16px" viewBox="0 0 16 16" version="1.1" xmlns="http://www.w3.org/2000/svg" xmlns:xlink="http://www.w3.org/1999/xlink">
    <!-- Generator: Sketch 48.2 (47327) - http://www.bohemiancoding.com/sketch -->
    <title>icon/16px/vid-share-screen-16px</title>
    <desc>Created with Sketch.</desc>
    <defs>
        <path d="M12.1823758,2.75872715 L10.9950131,2.75872715 C10.581488,2.75872715 10.2462598,2.4234989 10.2462598,2.00997389 C10.2462598,1.59644888 10.581488,1.26122063 10.9950131,1.26122063 L13.9900261,1.26122063 C14.4035511,1.26122063 14.7387794,1.59644888 14.7387794,2.00997389 L14.7387794,5.00498694 C14.7387794,5.41851195 14.4035511,5.75374021 13.9900261,5.75374021 C13.5765011,5.75374021 13.2412728,5.41851195 13.2412728,5.00498694 L13.2412728,3.81762417 L9.27820177,7.78069525 C8.98579544,8.07310158 8.51171109,8.07310158 8.21930475,7.78069525 C7.92689842,7.48828891 7.92689842,7.01420456 8.21930475,6.72179823 L12.1823758,2.75872715 Z M9.49750653,13.2412728 L9.50441155,13.2412728 C9.91412302,13.2412728 10.2462598,13.5736181 10.2462598,13.9900261 L10.2462598,14.7387794 L5.75374021,14.7387794 L5.75374021,13.9900261 C5.75374021,13.5765011 6.09140935,13.2412728 6.49558845,13.2412728 L6.50249347,13.2412728 L6.50249347,11.7437663 L9.49750653,11.7437663 L9.49750653,13.2412728 Z M8.74875326,2.00997389 L8.74875326,3.50748042 L2.75872715,3.50748042 L2.75872715,9.49750653 L13.2412728,9.49750653 L13.2412728,7.25124674 L14.7387794,7.25124674 L14.7387794,9.00094165 C14.7387794,10.1022369 13.8335511,10.9950131 12.7356057,10.9950131 L3.26439428,10.9950131 C2.15807202,10.9950131 1.26122063,10.1006444 1.26122063,9.00094165 L1.26122063,4.0040453 C1.26122063,2.90275007 2.16644892,2.00997389 3.26439428,2.00997389 L8.74875326,2.00997389 Z" id="path-1"></path>
    </defs>
    <g id="Symbols" stroke="none" stroke-width="1" fill="none" fill-rule="evenodd">
        <g id="icon/16px/vid-share-screen">
            <mask id="mask-2" fill="white">
                <use xlink:href="#path-1"></use>
            </mask>
            <use id="Combined-Shape" fill="#42526E" fill-rule="nonzero" xlink:href="#path-1"></use>
        </g>
    </g>
</svg>