<?xml version="1.0" encoding="UTF-8"?>
<svg width="16px" height="16px" viewBox="0 0 16 16" version="1.1" xmlns="http://www.w3.org/2000/svg" xmlns:xlink="http://www.w3.org/1999/xlink">
    <!-- Generator: Sketch 48.2 (47327) - http://www.bohemiancoding.com/sketch -->
    <title>icon/16px/vid-full-speaking-circle-16px</title>
    <desc>Created with Sketch.</desc>
    <defs>
        <path d="M1,8 C1,4.13366667 4.13366667,1 8,1 C11.8663333,1 15,4.13366667 15,8 C15,11.8663333 11.8663333,15 8,15 C4.13366667,15 1,11.8663333 1,8 Z M8.16002028,4.95629259 C8.1877797,4.99011062 8.24692422,5.06885407 8.32709509,5.18768328 C8.4656224,5.39300838 8.60516844,5.62930943 8.73558893,5.89146632 C9.53240905,7.49314619 9.60561795,9.14523744 8.51468763,10.6961349 C8.43320729,10.8119697 8.34526068,10.9269656 8.25068931,11.0410909 C7.99729359,11.3468795 8.04622609,11.7949711 8.35998311,12.0419315 C8.67374013,12.2888918 9.13350827,12.241202 9.386904,11.9354134 C9.5053521,11.7924745 9.61611902,11.6476396 9.71928358,11.5009779 C11.1505397,9.46626354 11.0540694,7.2892363 10.0497523,5.27046892 C9.77534136,4.71887827 9.4977869,4.30748722 9.30046929,4.0671042 C9.04852825,3.76017596 8.58899148,3.71041306 8.27406518,3.95595565 C7.95913888,4.20149825 7.90807924,4.64936435 8.16002028,4.95629259 Z M6.0494485,6.33320924 C6.10507205,6.40414224 6.20708409,6.56459997 6.31291955,6.79408527 C6.73843691,7.71674369 6.73843691,8.69814673 6.03012553,9.69263818 C5.80620367,10.0070315 5.87834689,10.4442798 6.19126193,10.6692595 C6.50417696,10.8942392 6.93936925,10.8217551 7.1632911,10.5073618 C8.19675114,9.05635144 8.19675114,7.54886559 7.57720564,6.20549177 C7.42177539,5.86846901 7.26252172,5.61797425 7.14396813,5.46679076 C6.90583826,5.16311964 6.4677793,5.11089993 6.16553605,5.35015479 C5.8632928,5.58940964 5.81131863,6.02953811 6.0494485,6.33320924 Z" id="path-1"></path>
    </defs>
    <g id="Symbols" stroke="none" stroke-width="1" fill="none" fill-rule="evenodd">
        <g id="icon/16px/vid-full-speaking-circle">
            <mask id="mask-2" fill="white">
                <use xlink:href="#path-1"></use>
            </mask>
            <use id="Combined-Shape" fill="#42526E" xlink:href="#path-1"></use>
        </g>
    </g>
</svg>