<?xml version="1.0" encoding="UTF-8"?>
<svg width="16px" height="16px" viewBox="0 0 16 16" version="1.1" xmlns="http://www.w3.org/2000/svg" xmlns:xlink="http://www.w3.org/1999/xlink">
    <!-- Generator: Sketch 48.2 (47327) - http://www.bohemiancoding.com/sketch -->
    <title>icon/16px/warning-16px</title>
    <desc>Created with Sketch.</desc>
    <defs>
        <path d="M9,8 C9,8.552 8.552,9 8,9 C7.448,9 7,8.552 7,8 L7,5 C7,4.448 7.448,4 8,4 C8.552,4 9,4.448 9,5 L9,8 Z M8,12 C7.448,12 7,11.552 7,11 C7,10.448 7.448,10 8,10 C8.552,10 9,10.448 9,11 C9,11.552 8.552,12 8,12 Z M14.5636873,10.7266526 L9.82527099,3.02578822 C8.98819721,1.66674911 7.01180279,1.66674911 6.17472901,3.02578822 L1.43631267,10.7266526 C0.557438791,12.1542868 1.58529251,13.9934911 3.26158365,13.9934911 L12.7384163,13.9934911 C14.4147075,13.9934911 15.4425612,12.1542868 14.5636873,10.7266526 Z" id="path-1"></path>
    </defs>
    <g id="Symbols" stroke="none" stroke-width="1" fill="none" fill-rule="evenodd">
        <g id="icon/16px/warning">
            <mask id="mask-2" fill="white">
                <use xlink:href="#path-1"></use>
            </mask>
            <use id="Fill-1" fill="#42526E" xlink:href="#path-1"></use>
        </g>
    </g>
</svg>